…
# A user-defined format: 4 conditions
- as.factor: TRUE
  Name Type     Expression   Label Order
1  obj    U     x == "LOW"     Low    NA
2  obj    U  x == "NORMAL"  Normal    NA
3  obj    U    x == "HIGH"    High    NA
4  obj    U x == "UNKNOWN" Unknown    NA

=========================================================================
Prepare data
=========================================================================

Pull out needed visits and columns

# A tibble: 1,578 × 9
   USUBJID  VISIT VISITNUM LBCAT LBORRESU LBTEST LBTESTCD
   <chr>    <chr>    <dbl> <chr> <chr>    <chr>  <chr>   
 1 ABC-01-… DAY 1        1 HEMA… x10(9)/L Basop… BASO    
 2 ABC-01-… WEEK…        2 HEMA… x10(9)/L Basop… BASO    
 3 ABC-01-… WEEK…        6 HEMA… x10(9)/L Basop… BASO    
 4 ABC-01-… WEEK…       12 HEMA… x10(9)/L Basop… BASO    
 5 ABC-01-… DAY 1        1 HEMA… x10(9)/L Eosin… EOS     
 6 ABC-01-… WEEK…        2 HEMA… x10(9)/L Eosin… EOS     
 7 ABC-01-… WEEK…        6 HEMA… x10(9)/L Eosin… EOS     
 8 ABC-01-… WEEK…       12 HEMA… x10(9)/L Eosin… EOS     
 9 ABC-01-… DAY 1        1 HEMA… %        Hemat… HCT     
10 ABC-01-… WEEK…        2 HEMA… %        Hemat… HCT     
# ℹ 1,568 more rows
# ℹ 2 more variables: LBBLFL <chr>, LBNRIND <chr>
# ℹ Use `print(n = ...)` to see more rows

Pull out baseline subset

# A tibble: 409 × 5
   USUBJID    VISIT LBCAT      LBTESTCD LBNRIND
   <chr>      <chr> <chr>      <chr>    <chr>  
 1 ABC-01-049 DAY 1 HEMATOLOGY BASO     NORMAL 
 2 ABC-01-049 DAY 1 HEMATOLOGY EOS      NORMAL 
 3 ABC-01-049 DAY 1 HEMATOLOGY HCT      NORMAL 
 4 ABC-01-049 DAY 1 HEMATOLOGY HGB      NORMAL 
 5 ABC-01-049 DAY 1 HEMATOLOGY LYM      NORMAL 
 6 ABC-01-050 DAY 1 HEMATOLOGY BASO     NORMAL 
 7 ABC-01-050 DAY 1 HEMATOLOGY EOS      NORMAL 
 8 ABC-01-050 DAY 1 HEMATOLOGY HCT      NORMAL 
 9 ABC-01-050 DAY 1 HEMATOLOGY HGB      NORMAL 
10 ABC-01-050 DAY 1 HEMATOLOGY LYM      NORMAL 
# ℹ 399 more rows
# ℹ Use `print(n = ...)` to see more rows

Merge and append change from baseline

datastep: columns increased from 9 to 10

# A tibble: 1,578 × 10
   USUBJID  VISIT VISITNUM LBCAT LBORRESU LBTEST LBTESTCD
   <chr>    <chr>    <dbl> <chr> <chr>    <chr>  <chr>   
 1 ABC-01-… WEEK…       12 HEMA… x10(9)/L Basop… BASO    
 2 ABC-01-… WEEK…        2 HEMA… x10(9)/L Basop… BASO    
 3 ABC-01-… DAY 1        1 HEMA… x10(9)/L Basop… BASO    
 4 ABC-01-… WEEK…        6 HEMA… x10(9)/L Basop… BASO    
 5 ABC-01-… WEEK…       12 HEMA… x10(9)/L Eosin… EOS     
 6 ABC-01-… DAY 1        1 HEMA… x10(9)/L Eosin… EOS     
 7 ABC-01-… WEEK…        2 HEMA… x10(9)/L Eosin… EOS     
 8 ABC-01-… WEEK…        6 HEMA… x10(9)/L Eosin… EOS     
 9 ABC-01-… WEEK…       12 HEMA… %        Hemat… HCT     
10 ABC-01-… WEEK…        2 HEMA… %        Hemat… HCT     
# ℹ 1,568 more rows
# ℹ 3 more variables: LBBLFL <chr>, LBNRIND <chr>,
#   BLBNRIND <chr>
# ℹ Use `print(n = ...)` to see more rows

Pull needed ARMs and columns for DM

# A tibble: 85 × 3
   USUBJID    ARMCD ARM  
   <chr>      <chr> <chr>
 1 ABC-01-049 4     ARM D
 2 ABC-01-050 2     ARM B
 3 ABC-01-051 1     ARM A
 4 ABC-01-052 3     ARM C
 5 ABC-01-053 2     ARM B
 6 ABC-01-054 4     ARM D
 7 ABC-01-055 3     ARM C
 8 ABC-01-056 1     ARM A
 9 ABC-01-113 4     ARM D
10 ABC-01-114 2     ARM B
# ℹ 75 more rows
# ℹ Use `print(n = ...)` to see more rows

Merge DM with LB to get subject treatments

datastep: columns increased from 10 to 12

# A tibble: 1,578 × 12
   USUBJID  VISIT VISITNUM LBCAT LBORRESU LBTEST LBTESTCD
   <chr>    <ord>    <dbl> <chr> <chr>    <chr>  <chr>   
 1 ABC-01-… Week…       12 HEMA… x10(9)/L Lymph… LYM     
 2 ABC-01-… Week…        6 HEMA… x10(9)/L Lymph… LYM     
 3 ABC-01-… Week…        2 HEMA… x10(9)/L Lymph… LYM     
 4 ABC-01-… Week…        6 HEMA… x10(9)/L Basop… BASO    
 5 ABC-01-… Week…       12 HEMA… x10(9)/L Eosin… EOS     
 6 ABC-01-… Week…       12 HEMA… g/dL     Hemog… HGB     
 7 ABC-01-… Week…        2 HEMA… x10(9)/L Eosin… EOS     
 8 ABC-01-… Week…        6 HEMA… x10(9)/L Eosin… EOS     
 9 ABC-01-… Week…       12 HEMA… %        Hemat… HCT     
10 ABC-01-… Day 1        1 HEMA… x10(9)/L Lymph… LYM     
# ℹ 1,568 more rows
# ℹ 5 more variables: LBBLFL <chr>, LBNRIND <chr>,
#   BLBNRIND <chr>, ARMCD <chr>, ARM <chr>
# ℹ Use `print(n = ...)` to see more rows

=========================================================================
Get population counts
=========================================================================

proc_sort: input data set 86 rows and 12 columns
           by: ARM USUBJID
           keep: ARM USUBJID
           order: a a
           options: nodupkey
           output data set 86 rows and 2 columns

# A tibble: 86 × 2
   ARM   USUBJID   
   <chr> <chr>     
 1 ARM A ABC-01-051
 2 ARM A ABC-01-056
 3 ARM A ABC-02-034
 4 ARM A ABC-02-038
 5 ARM A ABC-02-109
 6 ARM A ABC-03-002
 7 ARM A ABC-03-006
 8 ARM A ABC-03-091
 9 ARM A ABC-04-075
10 ARM A ABC-04-080
# ℹ 76 more rows
# ℹ Use `print(n = ...)` to see more rows
…
Apply formats

Pull out unknown results to get correct denominator

Get freqs by ARM and visit

proc_freq: input data set 1497 rows and 12 columns
           tables: LBNRIND * BLBNRIND
           by: ARM LBTESTCD VISIT
           view: TRUE
           output: 1 datasets

# A tibble: 1,280 × 10
   BY1   BY2   BY3   VAR1   VAR2  CAT1  CAT2      N   CNT
   <chr> <chr> <ord> <chr>  <chr> <fct> <fct> <dbl> <dbl>
 1 ARM A BASO  Day 1 LBNRI… BLBN… Low   Low      19     0
 2 ARM A BASO  Day 1 LBNRI… BLBN… Low   Norm…    19     0
 3 ARM A BASO  Day 1 LBNRI… BLBN… Low   High     19     0
 4 ARM A BASO  Day 1 LBNRI… BLBN… Low   Unkn…    19     0
 5 ARM A BASO  Day 1 LBNRI… BLBN… Norm… Low      19     0
 6 ARM A BASO  Day 1 LBNRI… BLBN… Norm… Norm…    19    19
 7 ARM A BASO  Day 1 LBNRI… BLBN… Norm… High     19     0
 8 ARM A BASO  Day 1 LBNRI… BLBN… Norm… Unkn…    19     0
 9 ARM A BASO  Day 1 LBNRI… BLBN… High  Low      19     0
10 ARM A BASO  Day 1 LBNRI… BLBN… High  Norm…    19     0
# ℹ 1,270 more rows
# ℹ 1 more variable: PCT <dbl>
# ℹ Use `print(n = ...)` to see more rows

Combine frequencies and percents

datastep: columns decreased from 10 to 7

# A tibble: 720 × 7
   BY1   BY2   BY3   CAT1   CAT2       N CNTPCT       
   <chr> <chr> <ord> <fct>  <fct>  <dbl> <chr>        
 1 ARM A BASO  Day 1 Low    Low       19 "0         " 
 2 ARM A BASO  Day 1 Low    Normal    19 "0         " 
 3 ARM A BASO  Day 1 Low    High      19 "0         " 
 4 ARM A BASO  Day 1 Normal Low       19 "0         " 
 5 ARM A BASO  Day 1 Normal Normal    19 "19 (100.0%)"
 6 ARM A BASO  Day 1 Normal High      19 "0         " 
 7 ARM A BASO  Day 1 High   Low       19 "0         " 
 8 ARM A BASO  Day 1 High   Normal    19 "0         " 
 9 ARM A BASO  Day 1 High   High      19 "0         " 
10 ARM B BASO  Day 1 Low    Low       20 "0         " 
# ℹ 710 more rows
# ℹ Use `print(n = ...)` to see more rows

Get freqs by ARM and visit for unknown

proc_freq: input data set 81 rows and 12 columns
           tables: LBNRIND * BLBNRIND
           by: ARM LBTESTCD VISIT
           view: TRUE
           output: 1 datasets

# A tibble: 1,280 × 10
   BY1   BY2   BY3   VAR1   VAR2  CAT1  CAT2      N   CNT
   <chr> <chr> <ord> <chr>  <chr> <fct> <fct> <dbl> <dbl>
 1 ARM A BASO  Day 1 LBNRI… BLBN… Low   Low       0     0
 2 ARM A BASO  Day 1 LBNRI… BLBN… Low   Norm…     0     0
 3 ARM A BASO  Day 1 LBNRI… BLBN… Low   High      0     0
 4 ARM A BASO  Day 1 LBNRI… BLBN… Low   Unkn…     0     0
 5 ARM A BASO  Day 1 LBNRI… BLBN… Norm… Low       0     0
 6 ARM A BASO  Day 1 LBNRI… BLBN… Norm… Norm…     0     0
 7 ARM A BASO  Day 1 LBNRI… BLBN… Norm… High      0     0
 8 ARM A BASO  Day 1 LBNRI… BLBN… Norm… Unkn…     0     0
 9 ARM A BASO  Day 1 LBNRI… BLBN… High  Low       0     0
10 ARM A BASO  Day 1 LBNRI… BLBN… High  Norm…     0     0
# ℹ 1,270 more rows
# ℹ 1 more variable: PCT <dbl>
# ℹ Use `print(n = ...)` to see more rows

Format frequency for unkown

datastep: columns decreased from 10 to 7

# A tibble: 560 × 7
   BY1   BY2   BY3   CAT1    CAT2        N CNTPCT      
   <chr> <chr> <ord> <fct>   <fct>   <dbl> <chr>       
 1 ARM A BASO  Day 1 Low     Unknown     0 "0         "
 2 ARM A BASO  Day 1 Normal  Unknown     0 "0         "
 3 ARM A BASO  Day 1 High    Unknown     0 "0         "
 4 ARM A BASO  Day 1 Unknown Low         0 "0         "
 5 ARM A BASO  Day 1 Unknown Normal      0 "0         "
 6 ARM A BASO  Day 1 Unknown High        0 "0         "
 7 ARM A BASO  Day 1 Unknown Unknown     0 "0         "
 8 ARM B BASO  Day 1 Low     Unknown     0 "0         "
 9 ARM B BASO  Day 1 Normal  Unknown     0 "0         "
10 ARM B BASO  Day 1 High    Unknown     0 "0         "
# ℹ 550 more rows
# ℹ Use `print(n = ...)` to see more rows

Set frequencies and rename

datastep: columns started with 7 and ended with 7

# A tibble: 1,280 × 7
   ARM   TEST  VISIT RES    BRES       N CNTPCT       
   <chr> <chr> <ord> <fct>  <fct>  <dbl> <chr>        
 1 ARM A BASO  Day 1 Low    Low       19 "0         " 
 2 ARM A BASO  Day 1 Low    Normal    19 "0         " 
 3 ARM A BASO  Day 1 Low    High      19 "0         " 
 4 ARM A BASO  Day 1 Normal Low       19 "0         " 
 5 ARM A BASO  Day 1 Normal Normal    19 "19 (100.0%)"
 6 ARM A BASO  Day 1 Normal High      19 "0         " 
 7 ARM A BASO  Day 1 High   Low       19 "0         " 
 8 ARM A BASO  Day 1 High   Normal    19 "0         " 
 9 ARM A BASO  Day 1 High   High      19 "0         " 
10 ARM B BASO  Day 1 Low    Low       20 "0         " 
# ℹ 1,270 more rows
# ℹ Use `print(n = ...)` to see more rows

Sort frequencies

proc_sort: input data set 1280 rows and 7 columns
           by: ARM TEST VISIT RES BRES
           keep: ARM TEST VISIT RES BRES N CNTPCT
           order: a a a a a
           output data set 1280 rows and 7 columns

# A tibble: 1,280 × 7
   ARM   TEST  VISIT RES    BRES        N CNTPCT       
   <chr> <chr> <ord> <fct>  <fct>   <dbl> <chr>        
 1 ARM A BASO  Day 1 Low    Low        19 "0         " 
 2 ARM A BASO  Day 1 Low    Normal     19 "0         " 
 3 ARM A BASO  Day 1 Low    High       19 "0         " 
 4 ARM A BASO  Day 1 Low    Unknown     0 "0         " 
 5 ARM A BASO  Day 1 Normal Low        19 "0         " 
 6 ARM A BASO  Day 1 Normal Normal     19 "19 (100.0%)"
 7 ARM A BASO  Day 1 Normal High       19 "0         " 
 8 ARM A BASO  Day 1 Normal Unknown     0 "0         " 
 9 ARM A BASO  Day 1 High   Low        19 "0         " 
10 ARM A BASO  Day 1 High   Normal     19 "0         " 
# ℹ 1,270 more rows
# ℹ Use `print(n = ...)` to see more rows

Transpose ARMs

proc_transpose: input data set 1280 rows and 7 columns
                by: TEST VISIT RES
                var: CNTPCT
                id: ARM BRES
                name: NAME
                output dataset 80 rows and 19 columns

# A tibble: 80 × 19
   TEST  VISIT  RES   `ARM A.Low`  `ARM A.Normal`
   <chr> <ord>  <fct> <chr>        <chr>         
 1 BASO  Day 1  Low   "0         " "0         "  
 2 EOS   Day 1  Low   "3 ( 15.8%)" "0         "  
 3 HCT   Day 1  Low   "3 ( 15.0%)" "0         "  
 4 HGB   Day 1  Low   "3 ( 15.0%)" "0         "  
 5 LYM   Day 1  Low   "0         " "0         "  
 6 BASO  Week 2 Low   "0         " "0         "  
 7 EOS   Week 2 Low   "1 (  5.6%)" "0         "  
 8 HCT   Week 2 Low   "1 (  5.0%)" "1 (  5.0%)"  
 9 HGB   Week 2 Low   "1 (  5.0%)" "1 (  5.0%)"  
10 LYM   Week 2 Low   "0         " "0         "  
# ℹ 70 more rows
# ℹ 14 more variables: `ARM A.High` <chr>,
#   `ARM A.Unknown` <chr>, `ARM B.Low` <chr>,
#   `ARM B.Normal` <chr>, `ARM B.High` <chr>,
#   `ARM B.Unknown` <chr>, `ARM C.Low` <chr>,
#   `ARM C.Normal` <chr>, `ARM C.High` <chr>,
#   `ARM C.Unknown` <chr>, `ARM D.Low` <chr>, …
# ℹ Use `print(n = ...)` to see more rows

Apply formats

Sort by lab test

proc_sort: input data set 80 rows and 19 columns
           by: TEST VISIT
           keep: TEST VISIT RES ARM A.Low ARM A.Normal ARM A.High ARM A.Unknown ARM B.Low ARM B.Normal ARM B.High ARM B.Unknown ARM C.Low ARM C.Normal ARM C.High ARM C.Unknown ARM D.Low ARM D.Normal ARM D.High ARM D.Unknown
           order: a a
           output data set 80 rows and 19 columns

# A tibble: 80 × 19
   TEST            VISIT RES   `ARM A.Low` `ARM A.Normal`
   <chr>           <ord> <fct> <chr>       <chr>         
 1 Basophils (x10… Day 1 Low   "0        … "0         "  
 2 Basophils (x10… Day 1 Norm… "0        … "19 (100.0%)" 
 3 Basophils (x10… Day 1 High  "0        … "0         "  
 4 Basophils (x10… Day 1 Unkn… "0        … "0         "  
 5 Basophils (x10… Week… Low   "0        … "0         "  
 6 Basophils (x10… Week… Norm… "0        … "18 (100.0%)" 
 7 Basophils (x10… Week… High  "0        … "0         "  
 8 Basophils (x10… Week… Unkn… "0        … "0         "  
 9 Basophils (x10… Week… Low   "0        … "0         "  
10 Basophils (x10… Week… Norm… "0        … "18 (100.0%)" 
# ℹ 70 more rows
# ℹ 14 more variables: `ARM A.High` <chr>,
#   `ARM A.Unknown` <chr>, `ARM B.Low` <chr>,
#   `ARM B.Normal` <chr>, `ARM B.High` <chr>,
#   `ARM B.Unknown` <chr>, `ARM C.Low` <chr>,
#   `ARM C.Normal` <chr>, `ARM C.High` <chr>,
#   `ARM C.Unknown` <chr>, `ARM D.Low` <chr>, …
# ℹ Use `print(n = ...)` to see more rows
…
