…
Prepare format

# A user-defined format: 4 conditions
  Name Type        Expression    Label Order
1  obj    U x >= 18 & x <= 24 18 to 24    NA
2  obj    U x >= 25 & x <= 44 25 to 44    NA
3  obj    U x >= 45 & x <= 64 45 to 64    NA
4  obj    U           x >= 65    >= 65    NA

Prepare data

datastep: columns decreased from 24 to 5

# A tibble: 85 × 5
   USUBJID    SEX     AGE ARM   AGECAT  
   <chr>      <chr> <dbl> <chr> <chr>   
 1 ABC-01-049 M        39 ARM D 25 to 44
 2 ABC-01-050 M        47 ARM B 45 to 64
 3 ABC-01-051 M        34 ARM A 25 to 44
 4 ABC-01-052 F        45 ARM C 45 to 64
 5 ABC-01-053 F        26 ARM B 25 to 44
 6 ABC-01-054 M        44 ARM D 25 to 44
 7 ABC-01-055 F        47 ARM C 45 to 64
 8 ABC-01-056 M        31 ARM A 25 to 44
 9 ABC-01-113 M        74 ARM D >= 65   
10 ABC-01-114 F        72 ARM B >= 65   
# ℹ 75 more rows
# ℹ Use `print(n = ...)` to see more rows
…
