…
Create lookup for AE severity 

    MILD MODERATE   SEVERE 
       1        2        3 

Subset ADAE for needed rows and columns 

mutate: new variable 'AESEVN' (double) with 3 unique values and 0% NA

select: dropped 24 variables (STUDYID, DOMAIN, AESEQ, AETERM, AELLT, …)

distinct: removed 18 rows (12%), 127 rows remaining

# A tibble: 127 x 6
   USUBJID    ARM   AESEV    AESEVN AESOC                                           AEDECOD                         
   <chr>      <chr> <chr>     <dbl> <chr>                                           <chr>                           
 1 ABC-01-049 ARM D MODERATE      2 Investigations                                  BLOOD GLUCOSE INCREASED         
 2 ABC-01-049 ARM D MODERATE      2 Investigations                                  BLOOD TRIGLYCERIDES INCREASED   
 3 ABC-01-049 ARM D MILD          1 Nervous system disorders                        HEADACHE                        
 4 ABC-01-049 ARM D MODERATE      2 Investigations                                  LABORATORY TEST ABNORMAL        
 5 ABC-01-049 ARM D MILD          1 Musculoskeletal and connective tissue disorders MUSCULOSKELETAL DISCOMFORT      
 6 ABC-01-050 ARM B MILD          1 Skin and subcutaneous tissue disorders          RASH                            
 7 ABC-01-050 ARM B MILD          1 Respiratory, thoracic and mediastinal disorders UPPER RESPIRATORY TRACT CONGEST~
 8 ABC-01-051 ARM A MILD          1 Nervous system disorders                        HEADACHE                        
 9 ABC-01-051 ARM A MILD          1 General disorders and administration site cond~ INFLUENZA LIKE ILLNESS          
10 ABC-01-051 ARM A MILD          1 Respiratory, thoracic and mediastinal disorders LOWER RESPIRATORY TRACT INFLAMM~
# ... with 117 more rows
…
group_by: 4 grouping variables (ARM, AESOC, AEDECOD, AESEVN)

summarize: now 101 rows and 5 columns, 3 group variables remaining (ARM, AESOC, AEDECOD)

pivot_wider: reorganized (ARM, AESEVN, cnt) into (ARM A_2, ARM A_1, ARM B_1, ARM B_2, ARM B_3, …) [was 101x5, now 73x11]

...


========================================================================= 
Create final data frame 
========================================================================= 

# A tibble: 74 x 14
   AESOC AEDECOD `ARM A_1` `ARM A_2` `ARM A_3` `ARM B_1` `ARM B_2` `ARM B_3` `ARM C_1` `ARM C_2` `ARM C_3` `ARM D_1`
   <chr> <chr>   <chr>     <chr>     <chr>     <chr>     <chr>     <chr>     <chr>     <chr>     <chr>     <chr>    
 1 All ~ All Ad~ 6 ( 42.9~ 8 ( 57.1~ 0 (  0.0~ 8 ( 57.1~ 4 ( 28.6~ 2 ( 14.3~ 8 ( 57.1~ 6 ( 42.9~ 0 (  0.0~ 7 ( 53.8~
 2 Bloo~ Neutro~ 0 (  0.0~ 0 (  0.0~ 0 (  0.0~ 0 (  0.0~ 0 (  0.0~ 0 (  0.0~ 0 (  0.0~ 1 (  7.1~ 0 (  0.0~ 0 (  0.0~
 3 Card~ Palpit~ 0 (  0.0~ 0 (  0.0~ 0 (  0.0~ 0 (  0.0~ 0 (  0.0~ 0 (  0.0~ 0 (  0.0~ 0 (  0.0~ 0 (  0.0~ 1 (  7.7~
 4 Card~ Sinus ~ 0 (  0.0~ 0 (  0.0~ 0 (  0.0~ 0 (  0.0~ 0 (  0.0~ 0 (  0.0~ 0 (  0.0~ 0 (  0.0~ 0 (  0.0~ 1 (  7.7~
 5 Cong~ Dermoi~ 0 (  0.0~ 0 (  0.0~ 0 (  0.0~ 1 (  7.1~ 0 (  0.0~ 0 (  0.0~ 0 (  0.0~ 0 (  0.0~ 0 (  0.0~ 0 (  0.0~
 6 Ear ~ Vertigo 0 (  0.0~ 0 (  0.0~ 0 (  0.0~ 0 (  0.0~ 1 (  7.1~ 0 (  0.0~ 0 (  0.0~ 0 (  0.0~ 0 (  0.0~ 0 (  0.0~
 7 Endo~ Parath~ 0 (  0.0~ 0 (  0.0~ 0 (  0.0~ 0 (  0.0~ 0 (  0.0~ 0 (  0.0~ 1 (  7.1~ 0 (  0.0~ 0 (  0.0~ 0 (  0.0~
 8 Gast~ Diarrh~ 0 (  0.0~ 0 (  0.0~ 0 (  0.0~ 1 (  7.1~ 1 (  7.1~ 0 (  0.0~ 0 (  0.0~ 0 (  0.0~ 0 (  0.0~ 0 (  0.0~
 9 Gast~ Food P~ 0 (  0.0~ 0 (  0.0~ 0 (  0.0~ 1 (  7.1~ 0 (  0.0~ 0 (  0.0~ 0 (  0.0~ 0 (  0.0~ 0 (  0.0~ 0 (  0.0~
10 Gast~ Tootha~ 0 (  0.0~ 1 (  7.1~ 0 (  0.0~ 0 (  0.0~ 0 (  0.0~ 0 (  0.0~ 0 (  0.0~ 0 (  0.0~ 0 (  0.0~ 2 ( 15.4~
# ... with 64 more rows, and 2 more variables: ARM D_2 <chr>, ARM D_3 <chr>
…
