…
=========================================================================
Prepare data
=========================================================================

Select desired columns from DM dataset

datastep: columns decreased from 24 to 8

# A tibble: 87 × 8
   USUBJID    ARM   SITEID SUBJID SEX     AGE RACE                      BRTHDTC   
   <chr>      <chr> <chr>  <chr>  <chr> <dbl> <chr>                     <date>    
 1 ABC-01-049 ARM D 01     049    M        39 WHITE                     1966-11-12
 2 ABC-01-050 ARM B 01     050    M        47 WHITE                     1958-12-19
 3 ABC-01-051 ARM A 01     051    M        34 WHITE                     1972-05-02
 4 ABC-01-052 ARM C 01     052    F        45 WHITE                     1961-06-27
 5 ABC-01-053 ARM B 01     053    F        26 WHITE                     1980-04-07
 6 ABC-01-054 ARM D 01     054    M        44 WHITE                     1962-09-13
 7 ABC-01-055 ARM C 01     055    F        47 BLACK OR AFRICAN AMERICAN 1959-06-11
 8 ABC-01-056 ARM A 01     056    M        31 WHITE                     1975-05-02
 9 ABC-01-113 ARM D 01     113    M        74 WHITE                     1932-02-08
10 ABC-01-114 ARM B 01     114    F        72 WHITE                     1934-07-09
# ℹ 77 more rows
# ℹ Use `print(n = ...)` to see more rows

Select desired columns from AE dataset

datastep: columns decreased from 27 to 9

# A tibble: 150 × 9
   USUBJID    AESTDTC    AEENDTC    AESTDY AEENDY AESOC                AESEV AESER AEREL
   <chr>      <chr>      <chr>       <dbl>  <dbl> <chr>                <chr> <chr> <chr>
 1 ABC-01-049 2006-12-28 2007-03-13     52    127 Investigations       MODE… N     NOT …
 2 ABC-01-049 2006-12-28 2007-03-13     52    127 Investigations       MODE… N     NOT …
 3 ABC-01-049 2007       2007           NA     NA Nervous system diso… MILD  N     NOT …
 4 ABC-01-049 2007-01-11 2007-03-13     66    127 Investigations       MODE… N     NOT …
 5 ABC-01-049 2007       2007           NA     NA Musculoskeletal and… MILD  N     NOT …
 6 ABC-01-050 2006-11-08 2006-11-15      7     14 Skin and subcutaneo… MILD  N     NOT …
 7 ABC-01-050 2006-12-17 2006-12-17     46     46 Respiratory, thorac… MILD  N     NOT …
 8 ABC-01-051 2007-01-01 2007-01-01     61     61 Nervous system diso… MILD  N     NOT …
 9 ABC-01-051 2007-03-06 2007-03-09    125    128 Nervous system diso… MILD  N     NOT …
10 ABC-01-051 2007-11-12 2007-11-14    376    378 Nervous system diso… MILD  N     NOT …
# ℹ 140 more rows
# ℹ Use `print(n = ...)` to see more rows
…
