…
=========================================================================
Prepare data
=========================================================================

Pull out needed visits and columns

# A tibble: 5,965 × 9
   USUBJID   VISIT VISITNUM LBORRES LBCAT
   <chr>     <chr>    <dbl> <chr>   <chr>
 1 ABC-01-0… DAY 1        1 0.04    HEMA…
 2 ABC-01-0… WEEK…        2 0.01    HEMA…
 3 ABC-01-0… WEEK…        6 0.06    HEMA…
 4 ABC-01-0… WEEK…       12 0.03    HEMA…
 5 ABC-01-0… DAY 1        1 0.45    HEMA…
 6 ABC-01-0… WEEK…        2 0.19    HEMA…
 7 ABC-01-0… WEEK…        6 0.63    HEMA…
 8 ABC-01-0… WEEK…       12 0.31    HEMA…
 9 ABC-01-0… DAY 1        1 0.19    HEMA…
10 ABC-01-0… WEEK…        2 0.19    HEMA…
# ℹ 5,955 more rows
# ℹ 4 more variables: LBORRESU <chr>,
#   LBTEST <chr>, LBTESTCD <chr>,
#   LBBLFL <chr>
# ℹ Use `print(n = ...)` to see more rows

Pull out baseline subset

# A tibble: 1,555 × 5
   USUBJID   VISIT LBORRES LBCAT LBTESTCD
   <chr>     <chr> <chr>   <chr> <chr>   
 1 ABC-01-0… DAY 1 0.04    HEMA… BASO    
 2 ABC-01-0… DAY 1 0.45    HEMA… BASOLE  
 3 ABC-01-0… DAY 1 0.19    HEMA… EOS     
 4 ABC-01-0… DAY 1 2.51    HEMA… EOSLE   
 5 ABC-01-0… DAY 1 42.6    HEMA… HCT     
 6 ABC-01-0… DAY 1 15.0    HEMA… HGB     
 7 ABC-01-0… DAY 1 1.91    HEMA… LYM     
 8 ABC-01-0… DAY 1 24.64   HEMA… LYMLE   
 9 ABC-01-0… DAY 1 33.2    HEMA… MCH     
10 ABC-01-0… DAY 1 35.3    HEMA… MCHC    
# ℹ 1,545 more rows
# ℹ Use `print(n = ...)` to see more rows

Merge and calculate change from baseline

datastep: columns increased from 9 to 11

# A tibble: 5,965 × 11
   USUBJID   VISIT VISITNUM LBORRES LBCAT
   <chr>     <chr>    <dbl>   <dbl> <chr>
 1 ABC-01-0… WEEK…        6    0.06 HEMA…
 2 ABC-01-0… DAY 1        1    0.04 HEMA…
 3 ABC-01-0… WEEK…       12    0.03 HEMA…
 4 ABC-01-0… WEEK…        2    0.01 HEMA…
 5 ABC-01-0… WEEK…       12    0.31 HEMA…
 6 ABC-01-0… WEEK…        6    0.63 HEMA…
 7 ABC-01-0… WEEK…        2    0.19 HEMA…
 8 ABC-01-0… DAY 1        1    0.45 HEMA…
 9 ABC-01-0… WEEK…       12    0.18 HEMA…
10 ABC-01-0… WEEK…        2    0.19 HEMA…
# ℹ 5,955 more rows
# ℹ 6 more variables: LBORRESU <chr>,
#   LBTEST <chr>, LBTESTCD <chr>,
#   LBBLFL <chr>, BLBORES <dbl>,
#   LBCHG <dbl>
# ℹ Use `print(n = ...)` to see more rows

Pull needed ARMs and columns for DM

# A tibble: 85 × 3
   USUBJID    ARMCD ARM  
   <chr>      <chr> <chr>
 1 ABC-01-049 4     ARM D
 2 ABC-01-050 2     ARM B
 3 ABC-01-051 1     ARM A
 4 ABC-01-052 3     ARM C
 5 ABC-01-053 2     ARM B
 6 ABC-01-054 4     ARM D
 7 ABC-01-055 3     ARM C
 8 ABC-01-056 1     ARM A
 9 ABC-01-113 4     ARM D
10 ABC-01-114 2     ARM B
# ℹ 75 more rows
# ℹ Use `print(n = ...)` to see more rows

Merge DM with LB to get subject treatments

datastep: columns increased from 11 to 13

# A tibble: 5,965 × 13
   USUBJID   VISIT VISITNUM LBORRES LBCAT
   <chr>     <ord>    <dbl>   <dbl> <chr>
 1 ABC-01-0… Day 1        1    0.45 HEMA…
 2 ABC-01-0… Week…        2   51.8  HEMA…
 3 ABC-01-0… Week…       12    0.18 HEMA…
 4 ABC-01-0… Week…        2    0.19 HEMA…
 5 ABC-01-0… Week…        6   32.6  HEMA…
 6 ABC-01-0… Week…        2   33.4  HEMA…
 7 ABC-01-0… Day 1        1   33.2  HEMA…
 8 ABC-01-0… Week…       12   33.5  HEMA…
 9 ABC-01-0… Week…        6    0.06 HEMA…
10 ABC-01-0… Day 1        1    0.04 HEMA…
# ℹ 5,955 more rows
# ℹ 8 more variables: LBORRESU <chr>,
#   LBTEST <chr>, LBTESTCD <chr>,
#   LBBLFL <chr>, BLBORES <dbl>,
#   LBCHG <dbl>, ARMCD <chr>, ARM <chr>
# ℹ Use `print(n = ...)` to see more rows

=========================================================================
Lab test labels
=========================================================================

Get lookup data for lab tests

proc_sort: input data set 33 rows and 13 columns
           by: LBTESTCD LBTEST LBORRESU
           keep: LBTESTCD LBTEST LBORRESU
           order: a a a
           options: nodupkey
           output data set 33 rows and 3 columns

# A tibble: 33 × 3
   LBTESTCD LBTEST               LBORRESU
   <chr>    <chr>                <chr>   
 1 BASO     Basophils            x10(9)/L
 2 BASO     Basophils            <NA>    
 3 BASOLE   Basophils/Leukocytes %       
 4 EOS      Eosinophils          x10(9)/L
 5 EOS      Eosinophils          <NA>    
 6 EOSLE    Eosinophils/Leukocy… %       
 7 HCT      Hematocrit           %       
 8 HCT      Hematocrit           <NA>    
 9 HGB      Hemoglobin           g/dL    
10 HGB      Hemoglobin           <NA>    
# ℹ 23 more rows
# ℹ Use `print(n = ...)` to see more rows
…
