…
Loads data into workspace

lib_load: library 'sdtm' loaded

Prepare DM data

datastep: columns decreased from 24 to 2

# A tibble: 85 × 2
   USUBJID    ARM  
   <chr>      <chr>
 1 ABC-01-049 ARM D
 2 ABC-01-050 ARM B
 3 ABC-01-051 ARM A
 4 ABC-01-052 ARM C
 5 ABC-01-053 ARM B
 6 ABC-01-054 ARM D
 7 ABC-01-055 ARM C
 8 ABC-01-056 ARM A
 9 ABC-01-113 ARM D
10 ABC-01-114 ARM B
# ℹ 75 more rows
# ℹ Use `print(n = ...)` to see more rows

Prepare DS data

datastep: columns decreased from 9 to 4

# A tibble: 87 × 4
   USUBJID    DSTERM                  DSDECOD DSCAT
   <chr>      <chr>                   <chr>   <chr>
 1 ABC-01-049 SUBJECT COMPLETED ALL … COMPLE… DISP…
 2 ABC-01-050 SUBJECT COMPLETED ALL … COMPLE… DISP…
 3 ABC-01-051 SUBJECT COMPLETED ALL … COMPLE… DISP…
 4 ABC-01-052 SUBJECT COMPLETED ALL … COMPLE… DISP…
 5 ABC-01-053 NON-COMPLIANCE WITH ST… NON-CO… DISP…
 6 ABC-01-054 SUBJECT COMPLETED ALL … COMPLE… DISP…
 7 ABC-01-055 SUBJECT COMPLETED ALL … COMPLE… DISP…
 8 ABC-01-056 SUBJECT COMPLETED ALL … COMPLE… DISP…
 9 ABC-01-113 SUBJECT COMPLETED ALL … COMPLE… DISP…
10 ABC-01-114 SUBJECT COMPLETED ALL … COMPLE… DISP…
# ℹ 77 more rows
# ℹ Use `print(n = ...)` to see more rows

Join DM with DS to get ARMs on DS

datastep: columns increased from 2 to 5

# A tibble: 87 × 5
   USUBJID    ARM   DSTERM            DSDECOD DSCAT
   <chr>      <chr> <chr>             <chr>   <chr>
 1 ABC-01-049 ARM D SUBJECT COMPLETE… COMPLE… DISP…
 2 ABC-01-050 ARM B SUBJECT COMPLETE… COMPLE… DISP…
 3 ABC-01-051 ARM A SUBJECT COMPLETE… COMPLE… DISP…
 4 ABC-01-052 ARM C SUBJECT COMPLETE… COMPLE… DISP…
 5 ABC-01-053 ARM B NON-COMPLIANCE W… NON-CO… DISP…
 6 ABC-01-054 ARM D SUBJECT COMPLETE… COMPLE… DISP…
 7 ABC-01-055 ARM C SUBJECT COMPLETE… COMPLE… DISP…
 8 ABC-01-056 ARM A SUBJECT COMPLETE… COMPLE… DISP…
 9 ABC-01-113 ARM D SUBJECT COMPLETE… COMPLE… DISP…
10 ABC-01-114 ARM B SUBJECT COMPLETE… COMPLE… DISP…
# ℹ 77 more rows
# ℹ Use `print(n = ...)` to see more rows
…
datastep: columns increased from 6 to 7

# A tibble: 3 × 7
  group        cat   catseq `ARM A` `ARM B` `ARM C`
  <chr>        <lgl>  <dbl> <chr>   <chr>   <chr>  
1 COMPLETED    NA         1 19 ( 9… 17 ( 8… 16 ( 7…
2 NONCOMPLIAN… NA         1 0 (  0… 1 (  4… 0 (  0…
3 OTHER        NA         1 1 (  5… 3 ( 14… 5 ( 23…
# ℹ 1 more variable: `ARM D` <chr>

Pull out subjects who completed study.

datastep: columns increased from 5 to 6

# A tibble: 74 × 6
   USUBJID    ARM   DSTERM  DSDECOD DSCAT TERMDECOD
   <chr>      <fct> <chr>   <chr>   <chr> <chr>    
 1 ABC-01-049 ARM D SUBJEC… COMPLE… DISP… Subject …
 2 ABC-01-050 ARM B SUBJEC… COMPLE… DISP… Subject …
 3 ABC-01-051 ARM A SUBJEC… COMPLE… DISP… Subject …
 4 ABC-01-052 ARM C SUBJEC… COMPLE… DISP… Subject …
 5 ABC-01-054 ARM D SUBJEC… COMPLE… DISP… Subject …
 6 ABC-01-055 ARM C SUBJEC… COMPLE… DISP… Subject …
 7 ABC-01-056 ARM A SUBJEC… COMPLE… DISP… Subject …
 8 ABC-01-113 ARM D SUBJEC… COMPLE… DISP… Subject …
 9 ABC-01-114 ARM B SUBJEC… COMPLE… DISP… Subject …
10 ABC-02-033 ARM C SUBJEC… COMPLE… DISP… Subject …
# ℹ 64 more rows
# ℹ Use `print(n = ...)` to see more rows
…
