…
lib_load: library 'sdtm' loaded

Format desired vital signs

datastep: columns decreased from 17 to 5

# A tibble: 2,764 × 5
   USUBJID    VSTESTCD VSCOMB   VISITNUM VISIT  
   <chr>      <chr>    <chr>       <dbl> <chr>  
 1 ABC-01-049 DIABP    "76 "           1 DAY 1  
 2 ABC-01-049 DIABP    "66 "           2 WEEK 2 
 3 ABC-01-049 DIABP    "84 "           4 WEEK 4 
 4 ABC-01-049 DIABP    "68 "           6 WEEK 6 
 5 ABC-01-049 DIABP    "80 "           8 WEEK 8 
 6 ABC-01-049 DIABP    "70 "          12 WEEK 12
 7 ABC-01-049 DIABP    "70 "          16 WEEK 16
 8 ABC-01-049 PULSE    "84 bpm"        1 DAY 1  
 9 ABC-01-049 PULSE    "84 bpm"        2 WEEK 2 
10 ABC-01-049 PULSE    "76 bpm"        4 WEEK 4 
# ℹ 2,754 more rows
# ℹ Use `print(n = ...)` to see more rows

Pivot vitals signs

proc_transpose: input data set 2764 rows and 5 columns
                by: USUBJID VISITNUM VISIT
                var: VSCOMB
                id: VSTESTCD
                name: NAME
                output dataset 554 rows and 9 columns

# A tibble: 554 × 9
   USUBJID    VISITNUM VISIT NAME   DIABP PULSE  RESP         SYSBP  TEMP  
   <chr>         <dbl> <chr> <chr>  <chr> <chr>  <chr>        <chr>  <chr> 
 1 ABC-01-049        1 DAY 1 VSCOMB "76 " 84 bpm 20 brths/min "120 " 36.4°C
 2 ABC-01-050        1 DAY 1 VSCOMB "78 " 68 bpm 18 brths/min "100 " 36.7°C
 3 ABC-01-052        1 DAY 1 VSCOMB "68 " 68 bpm 16 brths/min "100 " 36.3°C
 4 ABC-01-053        1 DAY 1 VSCOMB "78 " 62 bpm 16 brths/min "104 " 35.7°C
 5 ABC-01-054        1 DAY 1 VSCOMB  <NA> 92 bpm 16 brths/min  <NA>  36.6°C
 6 ABC-01-055        1 DAY 1 VSCOMB "80 " 76 bpm 20 brths/min "140 " 36.7°C
 7 ABC-01-056        1 DAY 1 VSCOMB "84 " 82 bpm 20 brths/min "112 " 37°C  
 8 ABC-01-113        1 DAY 1 VSCOMB "72 " 80 bpm 20 brths/min "140 " 36.1°C
 9 ABC-01-114        1 DAY 1 VSCOMB "88 " 68 bpm 20 brths/min "158 " 36.6°C
10 ABC-02-033        1 DAY 1 VSCOMB "88 " 72 bpm 8 brths/min  "122 " 36.2°C
# ℹ 544 more rows
# ℹ Use `print(n = ...)` to see more rows

proc_sort: input data set 554 rows and 9 columns
           by: USUBJID VISITNUM
           keep: USUBJID VISITNUM VISIT NAME DIABP PULSE RESP SYSBP TEMP
           order: a a
           output data set 554 rows and 9 columns

# A tibble: 554 × 9
   USUBJID    VISITNUM VISIT   NAME   DIABP PULSE  RESP         SYSBP  TEMP  
   <chr>         <dbl> <chr>   <chr>  <chr> <chr>  <chr>        <chr>  <chr> 
 1 ABC-01-049        1 DAY 1   VSCOMB "76 " 84 bpm 20 brths/min "120 " 36.4°C
 2 ABC-01-049        2 WEEK 2  VSCOMB "66 " 84 bpm 16 brths/min "128 " 36.6°C
 3 ABC-01-049        4 WEEK 4  VSCOMB "84 " 76 bpm 16 brths/min "134 " 35.7°C
 4 ABC-01-049        6 WEEK 6  VSCOMB "68 " 64 bpm 20 brths/min "100 " 36.5°C
 5 ABC-01-049        8 WEEK 8  VSCOMB "80 " 84 bpm 16 brths/min "128 " 36.4°C
 6 ABC-01-049       12 WEEK 12 VSCOMB "70 " 60 bpm 20 brths/min "120 " 36.6°C
 7 ABC-01-049       16 WEEK 16 VSCOMB "70 " 72 bpm 18 brths/min "130 " 36.2°C
 8 ABC-01-050        1 DAY 1   VSCOMB "78 " 68 bpm 18 brths/min "100 " 36.7°C
 9 ABC-01-050        2 WEEK 2  VSCOMB "64 " 68 bpm 18 brths/min "110 " 36.7°C
10 ABC-01-050        4 WEEK 4  VSCOMB "86 " 82 bpm 16 brths/min "128 " 36.6°C
# ℹ 544 more rows
# ℹ Use `print(n = ...)` to see more rows

Assign and apply formats

# A tibble: 87 × 24
   STUDYID DOMAIN USUBJID    SUBJID RFSTDTC    RFENDTC RFXSTDTC RFXENDTC RFICDTC   
   <chr>   <chr>  <chr>      <chr>  <date>     <date>  <lgl>    <lgl>    <date>    
 1 ABC     DM     ABC-01-049 049    2006-11-07 NA      NA       NA       2006-10-25
 2 ABC     DM     ABC-01-050 050    2006-11-02 NA      NA       NA       2006-10-25
 3 ABC     DM     ABC-01-051 051    2006-11-02 NA      NA       NA       2006-10-25
 4 ABC     DM     ABC-01-052 052    2006-11-06 NA      NA       NA       2006-10-31
 5 ABC     DM     ABC-01-053 053    2006-11-08 NA      NA       NA       2006-11-01
 6 ABC     DM     ABC-01-054 054    2006-11-16 NA      NA       NA       2006-11-07
 7 ABC     DM     ABC-01-055 055    2006-12-06 NA      NA       NA       2006-10-31
 8 ABC     DM     ABC-01-056 056    2006-11-28 NA      NA       NA       2006-11-21
 9 ABC     DM     ABC-01-113 113    2006-12-05 NA      NA       NA       2006-11-28
10 ABC     DM     ABC-01-114 114    2006-12-14 NA      NA       NA       2006-12-01
# ℹ 77 more rows
# ℹ 15 more variables: RFPENDTC <date>, DTHDTC <lgl>, DTHFL <lgl>, SITEID <chr>,
#   BRTHDTC <date>, AGE <chr>, AGEU <chr>, SEX <chr>, RACE <chr>, ETHNIC <chr>,
#   ARMCD <chr>, ARM <chr>, ACTARMCD <lgl>, ACTARM <lgl>, COUNTRY <lgl>
# ℹ Use `print(n = ...)` to see more rows

Prepare final data for reporting

datastep: columns increased from 24 to 37

# A tibble: 554 × 37
   STUDYID DOMAIN USUBJID    SUBJID RFSTDTC    RFENDTC RFXSTDTC RFXENDTC RFICDTC   
   <chr>   <chr>  <chr>      <chr>  <date>     <date>  <lgl>    <lgl>    <date>    
 1 ABC     DM     ABC-01-049 049    2006-11-07 NA      NA       NA       2006-10-25
 2 ABC     DM     ABC-01-049 049    2006-11-07 NA      NA       NA       2006-10-25
 3 ABC     DM     ABC-01-049 049    2006-11-07 NA      NA       NA       2006-10-25
 4 ABC     DM     ABC-01-049 049    2006-11-07 NA      NA       NA       2006-10-25
 5 ABC     DM     ABC-01-049 049    2006-11-07 NA      NA       NA       2006-10-25
 6 ABC     DM     ABC-01-049 049    2006-11-07 NA      NA       NA       2006-10-25
 7 ABC     DM     ABC-01-049 049    2006-11-07 NA      NA       NA       2006-10-25
 8 ABC     DM     ABC-01-050 050    2006-11-02 NA      NA       NA       2006-10-25
 9 ABC     DM     ABC-01-050 050    2006-11-02 NA      NA       NA       2006-10-25
10 ABC     DM     ABC-01-050 050    2006-11-02 NA      NA       NA       2006-10-25
# ℹ 544 more rows
# ℹ 28 more variables: RFPENDTC <date>, DTHDTC <lgl>, DTHFL <lgl>, SITEID <chr>,
#   BRTHDTC <date>, AGE <chr>, AGEU <chr>, SEX <chr>, RACE <chr>, ETHNIC <chr>,
#   ARMCD <chr>, ARM <chr>, ACTARMCD <lgl>, ACTARM <lgl>, COUNTRY <lgl>,
#   VISITNUM <dbl>, VISIT <chr>, NAME <chr>, DIABP <chr>, PULSE <chr>, RESP <chr>,
#   SYSBP <chr>, TEMP <chr>, BASELINE <chr>, BP <chr>, TREATMENT <chr>, PG <dbl>,
#   PTCNT <dbl>
# ℹ Use `print(n = ...)` to see more rows
…
