…
ARM A
ARM B

SYSBP
DIABP
PULSE
RESP

Prepare data for analysis

datastep: columns decreased from 24 to 6

# A tibble: 1,231 × 6
   STUDYID USUBJID    ARM   VISIT     VSTESTCD VSORRES
   <chr>   <chr>      <fct> <fct>     <fct>      <dbl>
 1 ABC     ABC-01-050 ARM B SCREENING DIABP         80
 2 ABC     ABC-01-050 ARM B DAY 1     DIABP         78
 3 ABC     ABC-01-050 ARM B WEEK 2    DIABP         64
 4 ABC     ABC-01-050 ARM B WEEK 4    DIABP         86
 5 ABC     ABC-01-050 ARM B WEEK 6    DIABP         70
 6 ABC     ABC-01-050 ARM B WEEK 8    DIABP         80
 7 ABC     ABC-01-050 ARM B WEEK 12   DIABP         64
 8 ABC     ABC-01-050 ARM B WEEK 16   DIABP         82
 9 ABC     ABC-01-050 ARM B SCREENING PULSE         76
10 ABC     ABC-01-050 ARM B DAY 1     PULSE         68
# ℹ 1,221 more rows
# ℹ Use `print(n = ...)` to see more rows
…
