Example 16: Shift Table • sassy
…
# A user-defined format: 4 conditions
- as.factor: TRUE
  Name Type     Expression   Label Order
1  obj    U     x == "LOW"     Low    NA
2  obj    U  x == "NORMAL"  Normal    NA
3  obj    U    x == "HIGH"    High    NA
4  obj    U x == "UNKNOWN" Unknown    NA

=========================================================================
Prepare data
=========================================================================

Pull out needed visits and columns

# A tibble: 1,578 × 9
   USUBJID    VISIT   VISITNUM LBCAT      LBORRESU LBTEST     LBTESTCD LBBLFL LBNRIND
   <chr>      <chr>      <dbl> <chr>      <chr>    <chr>      <chr>    <chr>  <chr>  
 1 ABC-01-049 DAY 1          1 HEMATOLOGY x10(9)/L Basophils  BASO     Y      NORMAL 
 2 ABC-01-049 WEEK 2         2 HEMATOLOGY x10(9)/L Basophils  BASO     <NA>   NORMAL 
 3 ABC-01-049 WEEK 6         6 HEMATOLOGY x10(9)/L Basophils  BASO     <NA>   NORMAL 
 4 ABC-01-049 WEEK 12       12 HEMATOLOGY x10(9)/L Basophils  BASO     <NA>   NORMAL 
 5 ABC-01-049 DAY 1          1 HEMATOLOGY x10(9)/L Eosinophi… EOS      Y      NORMAL 
 6 ABC-01-049 WEEK 2         2 HEMATOLOGY x10(9)/L Eosinophi… EOS      <NA>   NORMAL 
 7 ABC-01-049 WEEK 6         6 HEMATOLOGY x10(9)/L Eosinophi… EOS      <NA>   NORMAL 
 8 ABC-01-049 WEEK 12       12 HEMATOLOGY x10(9)/L Eosinophi… EOS      <NA>   NORMAL 
 9 ABC-01-049 DAY 1          1 HEMATOLOGY %        Hematocrit HCT      Y      NORMAL 
10 ABC-01-049 WEEK 2         2 HEMATOLOGY %        Hematocrit HCT      <NA>   NORMAL 
# ℹ 1,568 more rows
# ℹ Use `print(n = ...)` to see more rows

Pull out baseline subset

# A tibble: 409 × 5
   USUBJID    VISIT LBCAT      LBTESTCD LBNRIND
   <chr>      <chr> <chr>      <chr>    <chr>  
 1 ABC-01-049 DAY 1 HEMATOLOGY BASO     NORMAL 
 2 ABC-01-049 DAY 1 HEMATOLOGY EOS      NORMAL 
 3 ABC-01-049 DAY 1 HEMATOLOGY HCT      NORMAL 
 4 ABC-01-049 DAY 1 HEMATOLOGY HGB      NORMAL 
 5 ABC-01-049 DAY 1 HEMATOLOGY LYM      NORMAL 
 6 ABC-01-050 DAY 1 HEMATOLOGY BASO     NORMAL 
 7 ABC-01-050 DAY 1 HEMATOLOGY EOS      NORMAL 
 8 ABC-01-050 DAY 1 HEMATOLOGY HCT      NORMAL 
 9 ABC-01-050 DAY 1 HEMATOLOGY HGB      NORMAL 
10 ABC-01-050 DAY 1 HEMATOLOGY LYM      NORMAL 
# ℹ 399 more rows
# ℹ Use `print(n = ...)` to see more rows

Merge and append change from baseline

datastep: columns increased from 9 to 10

# A tibble: 1,578 × 10
   USUBJID    VISIT   VISITNUM LBCAT LBORRESU LBTEST LBTESTCD LBBLFL LBNRIND BLBNRIND
   <chr>      <chr>      <dbl> <chr> <chr>    <chr>  <chr>    <chr>  <chr>   <chr>   
 1 ABC-01-049 WEEK 12       12 HEMA… x10(9)/L Basop… BASO     <NA>   NORMAL  NORMAL  
 2 ABC-01-049 WEEK 2         2 HEMA… x10(9)/L Basop… BASO     <NA>   NORMAL  NORMAL  
 3 ABC-01-049 DAY 1          1 HEMA… x10(9)/L Basop… BASO     Y      NORMAL  NORMAL  
 4 ABC-01-049 WEEK 6         6 HEMA… x10(9)/L Basop… BASO     <NA>   NORMAL  NORMAL  
 5 ABC-01-049 WEEK 12       12 HEMA… x10(9)/L Eosin… EOS      <NA>   NORMAL  NORMAL  
 6 ABC-01-049 DAY 1          1 HEMA… x10(9)/L Eosin… EOS      Y      NORMAL  NORMAL  
 7 ABC-01-049 WEEK 2         2 HEMA… x10(9)/L Eosin… EOS      <NA>   NORMAL  NORMAL  
 8 ABC-01-049 WEEK 6         6 HEMA… x10(9)/L Eosin… EOS      <NA>   NORMAL  NORMAL  
 9 ABC-01-049 WEEK 12       12 HEMA… %        Hemat… HCT      <NA>   NORMAL  NORMAL  
10 ABC-01-049 WEEK 2         2 HEMA… %        Hemat… HCT      <NA>   NORMAL  NORMAL  
# ℹ 1,568 more rows
# ℹ Use `print(n = ...)` to see more rows

Pull needed ARMs and columns for DM

# A tibble: 85 × 3
   USUBJID    ARMCD ARM  
   <chr>      <chr> <chr>
 1 ABC-01-049 4     ARM D
 2 ABC-01-050 2     ARM B
 3 ABC-01-051 1     ARM A
 4 ABC-01-052 3     ARM C
 5 ABC-01-053 2     ARM B
 6 ABC-01-054 4     ARM D
 7 ABC-01-055 3     ARM C
 8 ABC-01-056 1     ARM A
 9 ABC-01-113 4     ARM D
10 ABC-01-114 2     ARM B
# ℹ 75 more rows
# ℹ Use `print(n = ...)` to see more rows

Merge DM with LB to get subject treatments

datastep: columns increased from 10 to 12

# A tibble: 1,578 × 12
   USUBJID    VISIT   VISITNUM LBCAT LBORRESU LBTEST LBTESTCD LBBLFL LBNRIND BLBNRIND
   <chr>      <ord>      <dbl> <chr> <chr>    <chr>  <chr>    <chr>  <chr>   <chr>   
 1 ABC-01-049 Week 12       12 HEMA… x10(9)/L Lymph… LYM      <NA>   NORMAL  NORMAL  
 2 ABC-01-049 Week 6         6 HEMA… x10(9)/L Lymph… LYM      <NA>   NORMAL  NORMAL  
 3 ABC-01-049 Week 2         2 HEMA… x10(9)/L Lymph… LYM      <NA>   NORMAL  NORMAL  
 4 ABC-01-049 Week 6         6 HEMA… x10(9)/L Basop… BASO     <NA>   NORMAL  NORMAL  
 5 ABC-01-049 Week 12       12 HEMA… x10(9)/L Eosin… EOS      <NA>   NORMAL  NORMAL  
 6 ABC-01-049 Week 12       12 HEMA… g/dL     Hemog… HGB      <NA>   NORMAL  NORMAL  
 7 ABC-01-049 Week 2         2 HEMA… x10(9)/L Eosin… EOS      <NA>   NORMAL  NORMAL  
 8 ABC-01-049 Week 6         6 HEMA… x10(9)/L Eosin… EOS      <NA>   NORMAL  NORMAL  
 9 ABC-01-049 Week 12       12 HEMA… %        Hemat… HCT      <NA>   NORMAL  NORMAL  
10 ABC-01-049 Day 1          1 HEMA… x10(9)/L Lymph… LYM      Y      NORMAL  NORMAL  
# ℹ 1,568 more rows
# ℹ 2 more variables: ARMCD <chr>, ARM <chr>
# ℹ Use `print(n = ...)` to see more rows

=========================================================================
Get population counts
=========================================================================

proc_sort: input data set 86 rows and 12 columns
           by: ARM USUBJID
           keep: ARM USUBJID
           order: a a
           options: nodupkey
           output data set 86 rows and 2 columns

# A tibble: 86 × 2
   ARM   USUBJID   
   <chr> <chr>     
 1 ARM A ABC-01-051
 2 ARM A ABC-01-056
 3 ARM A ABC-02-034
 4 ARM A ABC-02-038
 5 ARM A ABC-02-109
 6 ARM A ABC-03-002
 7 ARM A ABC-03-006
 8 ARM A ABC-03-091
 9 ARM A ABC-04-075
10 ARM A ABC-04-080
# ℹ 76 more rows
# ℹ Use `print(n = ...)` to see more rows
…
=========================================================================
Calculate frequencies
=========================================================================

Apply formats

Get freqs by ARM and visit

proc_freq: input data set 1578 rows and 12 columns
           tables: LBNRIND * BLBNRIND
           by: ARM LBTESTCD VISIT
           view: TRUE
           output: 1 datasets

# A tibble: 1,280 × 10
   BY1   BY2   BY3   VAR1    VAR2     CAT1   CAT2        N   CNT   PCT
   <chr> <chr> <ord> <chr>   <chr>    <fct>  <fct>   <dbl> <dbl> <dbl>
 1 ARM A BASO  Day 1 LBNRIND BLBNRIND Low    Low        19     0     0
 2 ARM A BASO  Day 1 LBNRIND BLBNRIND Low    Normal     19     0     0
 3 ARM A BASO  Day 1 LBNRIND BLBNRIND Low    High       19     0     0
 4 ARM A BASO  Day 1 LBNRIND BLBNRIND Low    Unknown    19     0     0
 5 ARM A BASO  Day 1 LBNRIND BLBNRIND Normal Low        19     0     0
 6 ARM A BASO  Day 1 LBNRIND BLBNRIND Normal Normal     19    19   100
 7 ARM A BASO  Day 1 LBNRIND BLBNRIND Normal High       19     0     0
 8 ARM A BASO  Day 1 LBNRIND BLBNRIND Normal Unknown    19     0     0
 9 ARM A BASO  Day 1 LBNRIND BLBNRIND High   Low        19     0     0
10 ARM A BASO  Day 1 LBNRIND BLBNRIND High   Normal     19     0     0
# ℹ 1,270 more rows
# ℹ Use `print(n = ...)` to see more rows

Combine frequencies and percents

datastep: columns decreased from 10 to 7

# A tibble: 1,280 × 7
   BY1   BY2   BY3   CAT1   CAT2        N CNTPCT       
   <chr> <chr> <ord> <fct>  <fct>   <dbl> <chr>        
 1 ARM A BASO  Day 1 Low    Low        19 "0         " 
 2 ARM A BASO  Day 1 Low    Normal     19 "0         " 
 3 ARM A BASO  Day 1 Low    High       19 "0         " 
 4 ARM A BASO  Day 1 Low    Unknown    19 "0         " 
 5 ARM A BASO  Day 1 Normal Low        19 "0         " 
 6 ARM A BASO  Day 1 Normal Normal     19 "19 (100.0%)"
 7 ARM A BASO  Day 1 Normal High       19 "0         " 
 8 ARM A BASO  Day 1 Normal Unknown    19 "0         " 
 9 ARM A BASO  Day 1 High   Low        19 "0         " 
10 ARM A BASO  Day 1 High   Normal     19 "0         " 
# ℹ 1,270 more rows
# ℹ Use `print(n = ...)` to see more rows

Transpose ARMs

proc_transpose: input data set 1280 rows and 7 columns
                by: BY2 BY3 CAT1
                var: CNTPCT
                id: BY1 CAT2
                copy: N
                name: NAME
                output dataset 80 rows and 20 columns

# A tibble: 80 × 20
   BY2   BY3    CAT1      N `ARM A.Low`  `ARM A.Normal` `ARM A.High` `ARM A.Unknown`
   <chr> <ord>  <fct> <dbl> <chr>        <chr>          <chr>        <chr>          
 1 BASO  Day 1  Low      19 "0         " "0         "   "0         " "0         "   
 2 EOS   Day 1  Low      19 "3 ( 15.8%)" "0         "   "0         " "0         "   
 3 HCT   Day 1  Low      20 "3 ( 15.0%)" "0         "   "0         " "0         "   
 4 HGB   Day 1  Low      20 "3 ( 15.0%)" "0         "   "0         " "0         "   
 5 LYM   Day 1  Low      19 "0         " "0         "   "0         " "0         "   
 6 BASO  Week 2 Low      19 "0         " "0         "   "0         " "0         "   
 7 EOS   Week 2 Low      19 "1 (  5.3%)" "0         "   "0         " "0         "   
 8 HCT   Week 2 Low      20 "1 (  5.0%)" "1 (  5.0%)"   "0         " "0         "   
 9 HGB   Week 2 Low      20 "1 (  5.0%)" "1 (  5.0%)"   "0         " "0         "   
10 LYM   Week 2 Low      19 "0         " "0         "   "0         " "0         "   
# ℹ 70 more rows
# ℹ 12 more variables: `ARM B.Low` <chr>, `ARM B.Normal` <chr>, `ARM B.High` <chr>,
#   `ARM B.Unknown` <chr>, `ARM C.Low` <chr>, `ARM C.Normal` <chr>,
#   `ARM C.High` <chr>, `ARM C.Unknown` <chr>, `ARM D.Low` <chr>,
#   `ARM D.Normal` <chr>, `ARM D.High` <chr>, `ARM D.Unknown` <chr>
# ℹ Use `print(n = ...)` to see more rows

Apply formats

Rename variables

datastep: columns started with 20 and ended with 20

# A tibble: 80 × 20
   LBTEST   VISIT RIND      N `ARM A.Low` `ARM A.Normal` `ARM A.High` `ARM A.Unknown`
   <chr>    <ord> <fct> <dbl> <chr>       <chr>          <chr>        <chr>          
 1 Basophi… Day 1 Low      19 "0        … "0         "   "0         " "0         "   
 2 Eosinop… Day 1 Low      19 "3 ( 15.8%… "0         "   "0         " "0         "   
 3 Hematoc… Day 1 Low      20 "3 ( 15.0%… "0         "   "0         " "0         "   
 4 Hemoglo… Day 1 Low      20 "3 ( 15.0%… "0         "   "0         " "0         "   
 5 Lymphoc… Day 1 Low      19 "0        … "0         "   "0         " "0         "   
 6 Basophi… Week… Low      19 "0        … "0         "   "0         " "0         "   
 7 Eosinop… Week… Low      19 "1 (  5.3%… "0         "   "0         " "0         "   
 8 Hematoc… Week… Low      20 "1 (  5.0%… "1 (  5.0%)"   "0         " "0         "   
 9 Hemoglo… Week… Low      20 "1 (  5.0%… "1 (  5.0%)"   "0         " "0         "   
10 Lymphoc… Week… Low      19 "0        … "0         "   "0         " "0         "   
# ℹ 70 more rows
# ℹ 12 more variables: `ARM B.Low` <chr>, `ARM B.Normal` <chr>, `ARM B.High` <chr>,
#   `ARM B.Unknown` <chr>, `ARM C.Low` <chr>, `ARM C.Normal` <chr>,
#   `ARM C.High` <chr>, `ARM C.Unknown` <chr>, `ARM D.Low` <chr>,
#   `ARM D.Normal` <chr>, `ARM D.High` <chr>, `ARM D.Unknown` <chr>
# ℹ Use `print(n = ...)` to see more rows

Sort by lab test

proc_sort: input data set 80 rows and 20 columns
           by: LBTEST VISIT
           keep: LBTEST VISIT RIND N ARM A.Low ARM A.Normal ARM A.High ARM A.Unknown ARM B.Low ARM B.Normal ARM B.High ARM B.Unknown ARM C.Low ARM C.Normal ARM C.High ARM C.Unknown ARM D.Low ARM D.Normal ARM D.High ARM D.Unknown
           order: a a
           output data set 80 rows and 20 columns

# A tibble: 80 × 20
   LBTEST   VISIT RIND      N `ARM A.Low` `ARM A.Normal` `ARM A.High` `ARM A.Unknown`
   <chr>    <ord> <fct> <dbl> <chr>       <chr>          <chr>        <chr>          
 1 Basophi… Day 1 Low      19 "0        … "0         "   "0         " "0         "   
 2 Basophi… Day 1 Norm…    19 "0        … "19 (100.0%)"  "0         " "0         "   
 3 Basophi… Day 1 High     19 "0        … "0         "   "0         " "0         "   
 4 Basophi… Day 1 Unkn…    19 "0        … "0         "   "0         " "0         "   
 5 Basophi… Week… Low      19 "0        … "0         "   "0         " "0         "   
 6 Basophi… Week… Norm…    19 "0        … "18 ( 94.7%)"  "0         " "1 (  5.3%)"   
 7 Basophi… Week… High     19 "0        … "0         "   "0         " "0         "   
 8 Basophi… Week… Unkn…    19 "0        … "0         "   "0         " "0         "   
 9 Basophi… Week… Low      19 "0        … "0         "   "0         " "0         "   
10 Basophi… Week… Norm…    19 "0        … "18 ( 94.7%)"  "0         " "1 (  5.3%)"   
# ℹ 70 more rows
# ℹ 12 more variables: `ARM B.Low` <chr>, `ARM B.Normal` <chr>, `ARM B.High` <chr>,
#   `ARM B.Unknown` <chr>, `ARM C.Low` <chr>, `ARM C.Normal` <chr>,
#   `ARM C.High` <chr>, `ARM C.Unknown` <chr>, `ARM D.Low` <chr>,
#   `ARM D.Normal` <chr>, `ARM D.High` <chr>, `ARM D.Unknown` <chr>
# ℹ Use `print(n = ...)` to see more rows
…
