Example 11: Subject Listing • sassy
…
lib_load: library 'sdtm' loaded

Format desired vital signs

datastep: columns decreased from 17 to 5

# A tibble: 2,764 × 5
   USUBJID    VSTESTCD VSCOMB   VISITNUM VISIT  
   <chr>      <chr>    <chr>       <dbl> <chr>  
 1 ABC-01-049 DIABP    "76 "           1 DAY 1  
 2 ABC-01-049 DIABP    "66 "           2 WEEK 2 
 3 ABC-01-049 DIABP    "84 "           4 WEEK 4 
 4 ABC-01-049 DIABP    "68 "           6 WEEK 6 
 5 ABC-01-049 DIABP    "80 "           8 WEEK 8 
 6 ABC-01-049 DIABP    "70 "          12 WEEK 12
 7 ABC-01-049 DIABP    "70 "          16 WEEK 16
 8 ABC-01-049 PULSE    "84 bpm"        1 DAY 1  
 9 ABC-01-049 PULSE    "84 bpm"        2 WEEK 2 
10 ABC-01-049 PULSE    "76 bpm"        4 WEEK 4 
# … with 2,754 more rows
# ℹ Use `print(n = ...)` to see more rows

Pivot vitals signs

group_by: 3 grouping variables (USUBJID, VISITNUM, VISIT)

pivot_wider: reorganized (VSTESTCD, VSCOMB) into (DIABP, PULSE, RESP, SYSBP, TEMP) [was 2764x5, now 554x8]

ungroup: no grouping variables

# A tibble: 554 × 8
   USUBJID    VISITNUM VISIT   DIABP PULSE  RESP         SYSBP  TEMP  
   <chr>         <dbl> <chr>   <chr> <chr>  <chr>        <chr>  <chr> 
 1 ABC-01-049        1 DAY 1   "76 " 84 bpm 20 brths/min "120 " 36.4°C
 2 ABC-01-049        2 WEEK 2  "66 " 84 bpm 16 brths/min "128 " 36.6°C
 3 ABC-01-049        4 WEEK 4  "84 " 76 bpm 16 brths/min "134 " 35.7°C
 4 ABC-01-049        6 WEEK 6  "68 " 64 bpm 20 brths/min "100 " 36.5°C
 5 ABC-01-049        8 WEEK 8  "80 " 84 bpm 16 brths/min "128 " 36.4°C
 6 ABC-01-049       12 WEEK 12 "70 " 60 bpm 20 brths/min "120 " 36.6°C
 7 ABC-01-049       16 WEEK 16 "70 " 72 bpm 18 brths/min "130 " 36.2°C
 8 ABC-01-050        1 DAY 1   "78 " 68 bpm 18 brths/min "100 " 36.7°C
 9 ABC-01-050        2 WEEK 2  "64 " 68 bpm 18 brths/min "110 " 36.7°C
10 ABC-01-050        4 WEEK 4  "86 " 82 bpm 16 brths/min "128 " 36.6°C
# … with 544 more rows
# ℹ Use `print(n = ...)` to see more rows

Assign and apply formats

# A tibble: 87 × 24
   STUDYID DOMAIN USUBJID    SUBJID RFSTDTC    RFENDTC RFXSTDTC RFXENDTC RFICDTC    RFPENDTC DTHDTC DTHFL SITEID
   <chr>   <chr>  <chr>      <chr>  <date>     <date>  <lgl>    <lgl>    <date>     <date>   <lgl>  <lgl> <chr> 
 1 ABC     DM     ABC-01-049 049    2006-11-07 NA      NA       NA       2006-10-25 NA       NA     NA    01    
 2 ABC     DM     ABC-01-050 050    2006-11-02 NA      NA       NA       2006-10-25 NA       NA     NA    01    
 3 ABC     DM     ABC-01-051 051    2006-11-02 NA      NA       NA       2006-10-25 NA       NA     NA    01    
 4 ABC     DM     ABC-01-052 052    2006-11-06 NA      NA       NA       2006-10-31 NA       NA     NA    01    
 5 ABC     DM     ABC-01-053 053    2006-11-08 NA      NA       NA       2006-11-01 NA       NA     NA    01    
 6 ABC     DM     ABC-01-054 054    2006-11-16 NA      NA       NA       2006-11-07 NA       NA     NA    01    
 7 ABC     DM     ABC-01-055 055    2006-12-06 NA      NA       NA       2006-10-31 NA       NA     NA    01    
 8 ABC     DM     ABC-01-056 056    2006-11-28 NA      NA       NA       2006-11-21 NA       NA     NA    01    
 9 ABC     DM     ABC-01-113 113    2006-12-05 NA      NA       NA       2006-11-28 NA       NA     NA    01    
10 ABC     DM     ABC-01-114 114    2006-12-14 NA      NA       NA       2006-12-01 NA       NA     NA    01    
# … with 77 more rows, and 11 more variables: BRTHDTC <date>, AGE <chr>, AGEU <chr>, SEX <chr>, RACE <chr>,
#   ETHNIC <chr>, ARMCD <chr>, ARM <chr>, ACTARMCD <lgl>, ACTARM <lgl>, COUNTRY <lgl>
# ℹ Use `print(n = ...)` to see more rows, and `colnames()` to see all variable names

Prepare final data for reporting

datastep: columns increased from 24 to 36

# A tibble: 554 × 36
   STUDYID DOMAIN USUBJID    SUBJID RFSTDTC    RFENDTC RFXSTDTC RFXENDTC RFICDTC    RFPENDTC DTHDTC DTHFL SITEID
   <chr>   <chr>  <chr>      <chr>  <date>     <date>  <lgl>    <lgl>    <date>     <date>   <lgl>  <lgl> <chr> 
 1 ABC     DM     ABC-01-049 049    2006-11-07 NA      NA       NA       2006-10-25 NA       NA     NA    01    
 2 ABC     DM     ABC-01-049 049    2006-11-07 NA      NA       NA       2006-10-25 NA       NA     NA    01    
 3 ABC     DM     ABC-01-049 049    2006-11-07 NA      NA       NA       2006-10-25 NA       NA     NA    01    
 4 ABC     DM     ABC-01-049 049    2006-11-07 NA      NA       NA       2006-10-25 NA       NA     NA    01    
 5 ABC     DM     ABC-01-049 049    2006-11-07 NA      NA       NA       2006-10-25 NA       NA     NA    01    
 6 ABC     DM     ABC-01-049 049    2006-11-07 NA      NA       NA       2006-10-25 NA       NA     NA    01    
 7 ABC     DM     ABC-01-049 049    2006-11-07 NA      NA       NA       2006-10-25 NA       NA     NA    01    
 8 ABC     DM     ABC-01-050 050    2006-11-02 NA      NA       NA       2006-10-25 NA       NA     NA    01    
 9 ABC     DM     ABC-01-050 050    2006-11-02 NA      NA       NA       2006-10-25 NA       NA     NA    01    
10 ABC     DM     ABC-01-050 050    2006-11-02 NA      NA       NA       2006-10-25 NA       NA     NA    01    
# … with 544 more rows, and 23 more variables: BRTHDTC <date>, AGE <chr>, AGEU <chr>, SEX <chr>, RACE <chr>,
#   ETHNIC <chr>, ARMCD <chr>, ARM <chr>, ACTARMCD <lgl>, ACTARM <lgl>, COUNTRY <lgl>, VISITNUM <dbl>, VISIT <chr>,
#   DIABP <chr>, PULSE <chr>, RESP <chr>, SYSBP <chr>, TEMP <chr>, BASELINE <chr>, BP <chr>, TREATMENT <chr>, PG <dbl>,
#   PTCNT <dbl>
# ℹ Use `print(n = ...)` to see more rows, and `colnames()` to see all variable names
…
