sassy • sassy
…
# Perform data step
dm_mod <- datastep(sdtm$DM, keep = c("USUBJID", "AGE", "AGECAT"), {
    if (AGE >= 18 & AGE <= 24)
        AGECAT <- "18 to 24"
    else if (AGE >= 25 & AGE <= 44)
        AGECAT <- "25 to 44"
    else if (AGE >= 45 & AGE <= 64)
        AGECAT <- "45 to 64"
    else if (AGE >= 65)
        AGECAT <- ">= 65"
    })

# Print dm_mod to console
print(dm_mod)
# # A tibble: 87 x 3
#    USUBJID      AGE AGECAT  
#    <chr>      <dbl> <chr>   
#  1 ABC-01-049    39 25 to 44
#  2 ABC-01-050    47 45 to 64
#  3 ABC-01-051    34 25 to 44
#  4 ABC-01-052    45 45 to 64
#  5 ABC-01-053    26 25 to 44
#  6 ABC-01-054    44 25 to 44
#  7 ABC-01-055    47 45 to 64
#  8 ABC-01-056    31 25 to 44
#  9 ABC-01-113    74 >= 65   
# 10 ABC-01-114    72 >= 65   
# # ... with 77 more rows
…
