Example #2: Table • sassy
…
           > matched rows     3,358    (includes duplicates)

           >                 =======

           > rows total       3,358

select: dropped 33 variables (STUDYID.x, DOMAIN.x, SUBJID, RFSTDTC, RFENDTC, …)

filter: removed 590 rows (18%), 2,768 rows remaining

group_by: 2 grouping variables (USUBJID, VSTESTCD)

ungroup: no grouping variables

# A tibble: 2,768 x 9
   USUBJID    VSTESTCD VISIT   VISITNUM VSSTRESN ARM   VSBLFL BSTRESN GRP   
   <chr>      <chr>    <chr>      <dbl>    <dbl> <chr> <chr>    <dbl> <chr> 
 1 ABC-01-049 DIABP    DAY 1          1       76 ARM D Y           76 O_BASE
 2 ABC-01-049 DIABP    WEEK 2         2       66 ARM D <NA>        76 O_TRT 
 3 ABC-01-049 DIABP    WEEK 4         4       84 ARM D <NA>        76 O_TRT 
 4 ABC-01-049 DIABP    WEEK 6         6       68 ARM D <NA>        76 O_TRT 
 5 ABC-01-049 DIABP    WEEK 8         8       80 ARM D <NA>        76 O_TRT 
 6 ABC-01-049 DIABP    WEEK 12       12       70 ARM D <NA>        76 O_TRT 
 7 ABC-01-049 DIABP    WEEK 16       16       70 ARM D <NA>        76 O_TRT 
 8 ABC-01-049 PULSE    DAY 1          1       84 ARM D Y           84 O_BASE
 9 ABC-01-049 PULSE    WEEK 2         2       84 ARM D <NA>        84 O_TRT 
10 ABC-01-049 PULSE    WEEK 4         4       76 ARM D <NA>        84 O_TRT 
# ... with 2,758 more rows
…
