Example 7: Survival Analysis • sassy
…
select: dropped 51 variables (STUDYID, SUBJID, SITEID, AGEU, RACE, <U+0085>)

filter: removed 2 rows (1%), 150 rows remaining

# A tibble: 150 x 5
   USUBJID    SEX   AGEGR1        AGE ARM  
   <chr>      <chr> <chr>       <dbl> <chr>
 1 ABC-01-049 M     30-39 years    39 ARM D
 2 ABC-01-050 M     40-49 years    47 ARM B
 3 ABC-01-051 M     30-39 years    34 ARM A
 4 ABC-01-052 F     40-49 years    45 ARM C
 5 ABC-01-053 F     18-29 years    26 ARM B
 6 ABC-01-054 M     40-49 years    44 ARM D
 7 ABC-01-055 F     40-49 years    47 ARM C
 8 ABC-01-056 M     30-39 years    31 ARM A
 9 ABC-01-113 M     >65 years      74 ARM D
10 ABC-01-114 F     >65 years      72 ARM B
# ... with 140 more rows

filter: removed 256 rows (21%), 950 rows remaining

select: dropped 36 variables (STUDYID, SUBJID, SITEID, QSSEQ, TRTP, <U+0085>)

# A tibble: 950 x 6
   USUBJID    TRTA  AVISIT     AVISITN  AVAL
   <chr>      <chr> <chr>        <dbl> <dbl>
 1 ABC-01-049 ARM D Day 1 Bas~       0     3
 2 ABC-01-049 ARM D Week 2           2     2
 3 ABC-01-049 ARM D Week 4           4     3
 4 ABC-01-049 ARM D Week 6           6     3
 5 ABC-01-049 ARM D Week 8           8     2
 6 ABC-01-049 ARM D Week 8           8     2
 7 ABC-01-049 ARM D Week 12         12     2
 8 ABC-01-049 ARM D Week 16         16     3
 9 ABC-01-050 ARM B Day 1 Bas~       0     3
10 ABC-01-050 ARM B Week 2           2     3
# ... with 940 more rows, and 1 more
#   variable: CRIT1FL <chr>
…
group_by: 3 grouping variables (ARM, AVISIT, AVISITN)

summarize: now 29 rows and 4 columns, 2 group variables remaining (ARM, AVISIT)

group_by: one grouping variable (ARM)

mutate (grouped): changed 4 values (14%) of 'AVISIT' (0 new NA)

                  new variable 'csumc' (integer) with 13 unique values and 0% NA

distinct (grouped): removed one row (3%), 28 rows remaining

mutate (grouped): new variable 'pct' (double) with 16 unique values and 0% NA

# A tibble: 28 x 6
# Groups:   ARM [4]
   ARM   AVISIT   AVISITN  sumc csumc    pct
   <chr> <chr>      <dbl> <int> <int>  <dbl>
 1 ARM A Day 1 B~       0     0     0 0     
 2 ARM A Week 2         2     0     0 0     
 3 ARM A Week 4         4     1     1 0.0278
 4 ARM A Week 6         6     3     4 0.111 
 5 ARM A Week 8         8     1     5 0.139 
 6 ARM A Week 12       12     0     5 0.139 
 7 ARM A Week 16       16     0     5 0.139 
 8 ARM B Day 1 B~       0     0     0 0     
 9 ARM B Week 2         2     1     1 0.0263
10 ARM B Week 4         4     4     5 0.132 
# ... with 18 more rows
…
