Example 8: Patient Profile • sassy
…
# A user-defined format: 4 conditions
  Name Type   Expression      Label Order
1  obj    U x == "ARM A"    Placebo    NA
2  obj    U x == "ARM B"  Dose 50mg    NA
3  obj    U x == "ARM C" Dose 100mg    NA
4  obj    U x == "ARM D" Competitor    NA

=========================================================================
Prepare data
=========================================================================

select: dropped 16 variables (STUDYID, DOMAIN, RFSTDTC, RFENDTC, RFXSTDTC, …)

# A tibble: 87 × 8
   USUBJID    ARM   SITEID SUBJID SEX     AGE RACE                      BRTHDTC   
   <chr>      <chr> <chr>  <chr>  <chr> <dbl> <chr>                     <date>    
 1 ABC-01-049 ARM D 01     049    M        39 WHITE                     1966-11-12
 2 ABC-01-050 ARM B 01     050    M        47 WHITE                     1958-12-19
 3 ABC-01-051 ARM A 01     051    M        34 WHITE                     1972-05-02
 4 ABC-01-052 ARM C 01     052    F        45 WHITE                     1961-06-27
 5 ABC-01-053 ARM B 01     053    F        26 WHITE                     1980-04-07
 6 ABC-01-054 ARM D 01     054    M        44 WHITE                     1962-09-13
 7 ABC-01-055 ARM C 01     055    F        47 BLACK OR AFRICAN AMERICAN 1959-06-11
 8 ABC-01-056 ARM A 01     056    M        31 WHITE                     1975-05-02
 9 ABC-01-113 ARM D 01     113    M        74 WHITE                     1932-02-08
10 ABC-01-114 ARM B 01     114    F        72 WHITE                     1934-07-09
# … with 77 more rows

select: dropped 18 variables (STUDYID, DOMAIN, AESEQ, AETERM, AELLT, …)

# A tibble: 150 × 9
   USUBJID    AESTDTC    AEENDTC    AESTDY AEENDY AESOC                                           AESEV    AESER AEREL      
   <chr>      <chr>      <chr>       <dbl>  <dbl> <chr>                                           <chr>    <chr> <chr>      
 1 ABC-01-049 2006-12-28 2007-03-13     52    127 Investigations                                  MODERATE N     NOT RELATED
 2 ABC-01-049 2006-12-28 2007-03-13     52    127 Investigations                                  MODERATE N     NOT RELATED
 3 ABC-01-049 2007       2007           NA     NA Nervous system disorders                        MILD     N     NOT RELATED
 4 ABC-01-049 2007-01-11 2007-03-13     66    127 Investigations                                  MODERATE N     NOT RELATED
 5 ABC-01-049 2007       2007           NA     NA Musculoskeletal and connective tissue disorders MILD     N     NOT RELATED
 6 ABC-01-050 2006-11-08 2006-11-15      7     14 Skin and subcutaneous tissue disorders          MILD     N     NOT RELATED
 7 ABC-01-050 2006-12-17 2006-12-17     46     46 Respiratory, thoracic and mediastinal disorders MILD     N     NOT RELATED
 8 ABC-01-051 2007-01-01 2007-01-01     61     61 Nervous system disorders                        MILD     N     NOT RELATED
 9 ABC-01-051 2007-03-06 2007-03-09    125    128 Nervous system disorders                        MILD     N     NOT RELATED
10 ABC-01-051 2007-11-12 2007-11-14    376    378 Nervous system disorders                        MILD     N     NOT RELATED
# … with 140 more rows
…
