Example #3: Figure • sassy
…
           > rows only in x       0

           > rows only in y  (    0)

           > matched rows     3,358    (includes duplicates)

           >                 =======

           > rows total       3,358

select: dropped 32 variables (STUDYID.x, DOMAIN.x, SUBJID, RFSTDTC, RFENDTC, …)

filter: removed 246 rows (7%), 3,112 rows remaining

# A tibble: 3,112 x 8
   USUBJID    ARMCD ARM   VSTESTCD VSTEST                   VSORRES VISITNUM VISIT    
   <chr>      <chr> <chr> <chr>    <chr>                      <dbl>    <dbl> <chr>    
 1 ABC-01-049 4     ARM D DIABP    Diastolic Blood Pressure      78        0 SCREENING
 2 ABC-01-049 4     ARM D DIABP    Diastolic Blood Pressure      76        1 DAY 1    
 3 ABC-01-049 4     ARM D DIABP    Diastolic Blood Pressure      66        2 WEEK 2   
 4 ABC-01-049 4     ARM D DIABP    Diastolic Blood Pressure      84        4 WEEK 4   
 5 ABC-01-049 4     ARM D DIABP    Diastolic Blood Pressure      68        6 WEEK 6   
 6 ABC-01-049 4     ARM D DIABP    Diastolic Blood Pressure      80        8 WEEK 8   
 7 ABC-01-049 4     ARM D DIABP    Diastolic Blood Pressure      70       12 WEEK 12  
 8 ABC-01-049 4     ARM D DIABP    Diastolic Blood Pressure      70       16 WEEK 16  
 9 ABC-01-049 4     ARM D PULSE    Pulse Rate                    92        0 SCREENING
10 ABC-01-049 4     ARM D PULSE    Pulse Rate                    84        1 DAY 1    
# ... with 3,102 more rows

Group and summarize 

group_by: 6 grouping variables (ARMCD, ARM, VSTESTCD, VSTEST, VISITNUM, …)

summarize: now 175 rows and 7 columns, 5 group variables remaining (ARMCD, ARM, VSTESTCD, VSTEST, VISITNUM)

filter (grouped): removed 35 rows (20%), 140 rows remaining

mutate (grouped): converted 'VISIT' from character to factor (0 new NA)

ungroup: no grouping variables

# A tibble: 140 x 7
   ARMCD ARM   VSTESTCD VSTEST                   VISITNUM VISIT    MEAN
   <chr> <chr> <chr>    <chr>                       <dbl> <fct>   <dbl>
 1 1     ARM A DIABP    Diastolic Blood Pressure        1 DAY 1    76.5
 2 1     ARM A DIABP    Diastolic Blood Pressure        2 WEEK 2   77.6
 3 1     ARM A DIABP    Diastolic Blood Pressure        4 WEEK 4   78.7
 4 1     ARM A DIABP    Diastolic Blood Pressure        6 WEEK 6   74.4
 5 1     ARM A DIABP    Diastolic Blood Pressure        8 WEEK 8   77.1
 6 1     ARM A DIABP    Diastolic Blood Pressure       12 WEEK 12  78.4
 7 1     ARM A DIABP    Diastolic Blood Pressure       16 WEEK 16  77.3
 8 1     ARM A PULSE    Pulse Rate                      1 DAY 1    72.6
 9 1     ARM A PULSE    Pulse Rate                      2 WEEK 2   73.4
10 1     ARM A PULSE    Pulse Rate                      4 WEEK 4   75.8
# ... with 130 more rows
…
