Example 14: AE Severity in Rows • sassy
…
Filter DM data

datastep: columns decreased from 24 to 3

# A tibble: 85 × 3
   USUBJID    ARM   ARMCD
   <chr>      <chr> <chr>
 1 ABC-01-049 ARM D 4    
 2 ABC-01-050 ARM B 2    
 3 ABC-01-051 ARM A 1    
 4 ABC-01-052 ARM C 3    
 5 ABC-01-053 ARM B 2    
 6 ABC-01-054 ARM D 4    
 7 ABC-01-055 ARM C 3    
 8 ABC-01-056 ARM A 1    
 9 ABC-01-113 ARM D 4    
10 ABC-01-114 ARM B 2    
# ℹ 75 more rows
# ℹ Use `print(n = ...)` to see more rows
…
# A tibble: 1 × 6
  VAR   STAT  `ARM A` `ARM B` `ARM C` `ARM D`
  <chr> <chr>   <dbl>   <dbl>   <dbl>   <dbl>
1 ARM   CNT        20      21      21      23

Prepare table data

datastep: columns decreased from 27 to 5

# A tibble: 145 × 5
   USUBJID    ARM   AESEV    AESOC                                           AEDECOD
   <chr>      <chr> <chr>    <chr>                                           <chr>  
 1 ABC-01-049 ARM D MODERATE Investigations                                  BLOOD …
 2 ABC-01-049 ARM D MODERATE Investigations                                  BLOOD …
 3 ABC-01-049 ARM D MILD     Musculoskeletal and connective tissue disorders MUSCUL…
 4 ABC-01-049 ARM D MILD     Nervous system disorders                        HEADAC…
 5 ABC-01-049 ARM D MODERATE Investigations                                  LABORA…
 6 ABC-01-050 ARM B MILD     Respiratory, thoracic and mediastinal disorders UPPER …
 7 ABC-01-050 ARM B MILD     Skin and subcutaneous tissue disorders          RASH   
 8 ABC-01-051 ARM A MILD     Nervous system disorders                        HEADAC…
 9 ABC-01-051 ARM A MILD     Nervous system disorders                        HEADAC…
10 ABC-01-051 ARM A MILD     General disorders and administration site cond… INFLUE…
# ℹ 135 more rows
# ℹ Use `print(n = ...)` to see more rows
…
=========================================================================
Perform Calculations
=========================================================================

Get SOC Frequencies

proc_freq: input data set 145 rows and 5 columns
           tables: AESOC * AESEV
           by: ARM
           view: TRUE
           output: 1 datasets

# A tibble: 240 × 8
   BY    VAR1  VAR2  CAT1                                    CAT2      N   CNT   PCT
   <chr> <chr> <chr> <chr>                                   <chr> <dbl> <dbl> <dbl>
 1 ARM A AESOC AESEV Blood and lymphatic system disorders    MILD     37     0     0
 2 ARM A AESOC AESEV Blood and lymphatic system disorders    MODE…    37     0     0
 3 ARM A AESOC AESEV Blood and lymphatic system disorders    SEVE…    37     0     0
 4 ARM A AESOC AESEV Cardiac disorders                       MILD     37     0     0
 5 ARM A AESOC AESEV Cardiac disorders                       MODE…    37     0     0
 6 ARM A AESOC AESEV Cardiac disorders                       SEVE…    37     0     0
 7 ARM A AESOC AESEV Congenital, familial and genetic disor… MILD     37     0     0
 8 ARM A AESOC AESEV Congenital, familial and genetic disor… MODE…    37     0     0
 9 ARM A AESOC AESEV Congenital, familial and genetic disor… SEVE…    37     0     0
10 ARM A AESOC AESEV Ear and labyrinth disorders             MILD     37     0     0
# ℹ 230 more rows
# ℹ Use `print(n = ...)` to see more rows

Combine columns for SOC

datastep: columns decreased from 8 to 7

# A tibble: 240 × 7
   BY    VAR   CAT                                        CAT2       N VARORD CNTPCT
   <chr> <chr> <chr>                                      <chr>  <dbl>  <dbl> <chr> 
 1 ARM A AESOC Blood and lymphatic system disorders       Mild      37      1 "  0 …
 2 ARM A AESOC Blood and lymphatic system disorders       Moder…    37      1 "  0 …
 3 ARM A AESOC Blood and lymphatic system disorders       Severe    37      1 "  0 …
 4 ARM A AESOC Cardiac disorders                          Mild      37      1 "  0 …
 5 ARM A AESOC Cardiac disorders                          Moder…    37      1 "  0 …
 6 ARM A AESOC Cardiac disorders                          Severe    37      1 "  0 …
 7 ARM A AESOC Congenital, familial and genetic disorders Mild      37      1 "  0 …
 8 ARM A AESOC Congenital, familial and genetic disorders Moder…    37      1 "  0 …
 9 ARM A AESOC Congenital, familial and genetic disorders Severe    37      1 "  0 …
10 ARM A AESOC Ear and labyrinth disorders                Mild      37      1 "  0 …
# ℹ 230 more rows
# ℹ Use `print(n = ...)` to see more rows

Pivot SOC frequencies

proc_transpose: input data set 240 rows and 7 columns
                by: CAT CAT2
                var: CNTPCT
                id: BY
                copy: VAR VARORD
                name: NAME
                output dataset 60 rows and 9 columns

# A tibble: 60 × 9
   VAR   CAT                      CAT2  VARORD NAME  `ARM A` `ARM B` `ARM C` `ARM D`
   <chr> <chr>                    <chr>  <dbl> <chr> <chr>   <chr>   <chr>   <chr>  
 1 AESOC Blood and lymphatic sys… Mild       1 CNTP… "  0 (… "  0 (… "  0 (… "  0 (…
 2 AESOC Cardiac disorders        Mild       1 CNTP… "  0 (… "  0 (… "  0 (… "  2 (…
 3 AESOC Congenital, familial an… Mild       1 CNTP… "  0 (… "  1 (… "  0 (… "  0 (…
 4 AESOC Ear and labyrinth disor… Mild       1 CNTP… "  0 (… "  0 (… "  0 (… "  0 (…
 5 AESOC Endocrine disorders      Mild       1 CNTP… "  0 (… "  0 (… "  1 (… "  0 (…
 6 AESOC Gastrointestinal disord… Mild       1 CNTP… "  0 (… "  4 (… "  0 (… "  2 (…
 7 AESOC General disorders and a… Mild       1 CNTP… "  2 (… "  0 (… "  3 (… "  2 (…
 8 AESOC Infections and infestat… Mild       1 CNTP… "  7 (… "  7 (… "  6 (… "  6 (…
 9 AESOC Injury, poisoning and p… Mild       1 CNTP… "  0 (… "  0 (… "  0 (… "  1 (…
10 AESOC Investigations           Mild       1 CNTP… "  4 (… "  1 (… "  2 (… "  5 (…
# ℹ 50 more rows
# ℹ Use `print(n = ...)` to see more rows

datastep: columns started with 9 and ended with 9

# A tibble: 60 × 9
   VAR   AESOC               SEVERITY VARORD `ARM A` `ARM B` `ARM C` `ARM D` AEDECOD
   <chr> <chr>               <chr>     <dbl> <chr>   <chr>   <chr>   <chr>   <chr>  
 1 AESOC Blood and lymphati… Mild          1 "  0 (… "  0 (… "  0 (… "  0 (… <NA>   
 2 AESOC Cardiac disorders   Mild          1 "  0 (… "  0 (… "  0 (… "  2 (… <NA>   
 3 AESOC Congenital, famili… Mild          1 "  0 (… "  1 (… "  0 (… "  0 (… <NA>   
 4 AESOC Ear and labyrinth … Mild          1 "  0 (… "  0 (… "  0 (… "  0 (… <NA>   
 5 AESOC Endocrine disorders Mild          1 "  0 (… "  0 (… "  1 (… "  0 (… <NA>   
 6 AESOC Gastrointestinal d… Mild          1 "  0 (… "  4 (… "  0 (… "  2 (… <NA>   
 7 AESOC General disorders … Mild          1 "  2 (… "  0 (… "  3 (… "  2 (… <NA>   
 8 AESOC Infections and inf… Mild          1 "  7 (… "  7 (… "  6 (… "  6 (… <NA>   
 9 AESOC Injury, poisoning … Mild          1 "  0 (… "  0 (… "  0 (… "  1 (… <NA>   
10 AESOC Investigations      Mild          1 "  4 (… "  1 (… "  2 (… "  5 (… <NA>   
# ℹ 50 more rows
# ℹ Use `print(n = ...)` to see more rows

Get PT Frequencies

proc_freq: input data set 145 rows and 5 columns
           tables: AEDECOD * AESEV
           by: ARM
           view: TRUE
           output: 1 datasets

# A tibble: 876 × 7
   BY    VAR1    VAR2  CAT1                              CAT2       CNT   PCT
   <chr> <chr>   <chr> <chr>                             <chr>    <dbl> <dbl>
 1 ARM A AEDECOD AESEV ANXIETY                           MILD         0  0   
 2 ARM A AEDECOD AESEV ANXIETY                           MODERATE     0  0   
 3 ARM A AEDECOD AESEV ANXIETY                           SEVERE       0  0   
 4 ARM A AEDECOD AESEV APPLICATION SITE HYPERSENSITIVITY MILD         0  0   
 5 ARM A AEDECOD AESEV APPLICATION SITE HYPERSENSITIVITY MODERATE     0  0   
 6 ARM A AEDECOD AESEV APPLICATION SITE HYPERSENSITIVITY SEVERE       0  0   
 7 ARM A AEDECOD AESEV APPLICATION SITE IRRITATION       MILD         0  0   
 8 ARM A AEDECOD AESEV APPLICATION SITE IRRITATION       MODERATE     0  0   
 9 ARM A AEDECOD AESEV APPLICATION SITE IRRITATION       SEVERE       0  0   
10 ARM A AEDECOD AESEV BACK PAIN                         MILD         2  5.41
# ℹ 866 more rows
# ℹ Use `print(n = ...)` to see more rows

Get unique SOC and PT combinations

proc_sort: input data set 73 rows and 5 columns
           by: AESOC AEDECOD
           keep: AESOC AEDECOD
           order: a a
           options: nodupkey
           output data set 73 rows and 2 columns

# A tibble: 73 × 2
   AESOC                                      AEDECOD             
   <chr>                                      <chr>               
 1 Blood and lymphatic system disorders       NEUTROPENIA         
 2 Cardiac disorders                          PALPITATIONS        
 3 Cardiac disorders                          SINUS BRADYCARDIA   
 4 Congenital, familial and genetic disorders DERMOID CYST        
 5 Ear and labyrinth disorders                VERTIGO             
 6 Endocrine disorders                        PARATHYROID DISORDER
 7 Gastrointestinal disorders                 DIARRHOEA           
 8 Gastrointestinal disorders                 FOOD POISONING      
 9 Gastrointestinal disorders                 TOOTHACHE           
10 Gastrointestinal disorders                 VOMITING            
# ℹ 63 more rows
# ℹ Use `print(n = ...)` to see more rows

Combine columns for PT

datastep: columns decreased from 7 to 6

# A tibble: 876 × 6
   BY    VAR     CAT                               CAT2     VARORD CNTPCT       
   <chr> <chr>   <chr>                             <chr>     <dbl> <chr>        
 1 ARM A AEDECOD ANXIETY                           Mild          2 "  0 (  0.0)"
 2 ARM A AEDECOD ANXIETY                           Moderate      2 "  0 (  0.0)"
 3 ARM A AEDECOD ANXIETY                           Severe        2 "  0 (  0.0)"
 4 ARM A AEDECOD APPLICATION SITE HYPERSENSITIVITY Mild          2 "  0 (  0.0)"
 5 ARM A AEDECOD APPLICATION SITE HYPERSENSITIVITY Moderate      2 "  0 (  0.0)"
 6 ARM A AEDECOD APPLICATION SITE HYPERSENSITIVITY Severe        2 "  0 (  0.0)"
 7 ARM A AEDECOD APPLICATION SITE IRRITATION       Mild          2 "  0 (  0.0)"
 8 ARM A AEDECOD APPLICATION SITE IRRITATION       Moderate      2 "  0 (  0.0)"
 9 ARM A AEDECOD APPLICATION SITE IRRITATION       Severe        2 "  0 (  0.0)"
10 ARM A AEDECOD BACK PAIN                         Mild          2 "  2 (  5.4)"
# ℹ 866 more rows
# ℹ Use `print(n = ...)` to see more rows

Pivot PT frequencies

proc_transpose: input data set 876 rows and 6 columns
                by: CAT CAT2
                var: CNTPCT
                id: BY
                copy: VAR VARORD
                name: NAME
                output dataset 219 rows and 9 columns

# A tibble: 219 × 9
   VAR     CAT                    CAT2  VARORD NAME  `ARM A` `ARM B` `ARM C` `ARM D`
   <chr>   <chr>                  <chr>  <dbl> <chr> <chr>   <chr>   <chr>   <chr>  
 1 AEDECOD ANXIETY                Mild       2 CNTP… "  0 (… "  0 (… "  0 (… "  1 (…
 2 AEDECOD APPLICATION SITE HYPE… Mild       2 CNTP… "  0 (… "  0 (… "  1 (… "  0 (…
 3 AEDECOD APPLICATION SITE IRRI… Mild       2 CNTP… "  0 (… "  0 (… "  1 (… "  1 (…
 4 AEDECOD BACK PAIN              Mild       2 CNTP… "  2 (… "  0 (… "  0 (… "  1 (…
 5 AEDECOD BASAL CELL CARCINOMA   Mild       2 CNTP… "  0 (… "  1 (… "  0 (… "  0 (…
 6 AEDECOD BLOOD GLUCOSE INCREAS… Mild       2 CNTP… "  0 (… "  0 (… "  0 (… "  0 (…
 7 AEDECOD BLOOD PARATHYROID HOR… Mild       2 CNTP… "  0 (… "  1 (… "  0 (… "  0 (…
 8 AEDECOD BLOOD PARATHYROID HOR… Mild       2 CNTP… "  0 (… "  0 (… "  0 (… "  0 (…
 9 AEDECOD BLOOD PRESSURE INCREA… Mild       2 CNTP… "  1 (… "  0 (… "  0 (… "  1 (…
10 AEDECOD BLOOD TRIGLYCERIDES I… Mild       2 CNTP… "  0 (… "  0 (… "  0 (… "  0 (…
# ℹ 209 more rows
# ℹ Use `print(n = ...)` to see more rows

Join in SOC

datastep: columns increased from 9 to 11

# A tibble: 219 × 11
   VAR    AEDECOD SEVERITY VARORD NAME  `ARM A` `ARM B` `ARM C` `ARM D` AESOC AESEVN
   <chr>  <chr>   <chr>     <dbl> <chr> <chr>   <chr>   <chr>   <chr>   <chr>  <dbl>
 1 AEDEC… Anxiety Mild          2 CNTP… "  0 (… "  0 (… "  0 (… "  1 (… Psyc…      1
 2 AEDEC… Anxiety Severe        2 CNTP… "  0 (… "  0 (… "  0 (… "  0 (… Psyc…      3
 3 AEDEC… Anxiety Moderate      2 CNTP… "  0 (… "  0 (… "  0 (… "  0 (… Psyc…      2
 4 AEDEC… Applic… Severe        2 CNTP… "  0 (… "  0 (… "  0 (… "  0 (… Gene…      3
 5 AEDEC… Applic… Moderate      2 CNTP… "  0 (… "  0 (… "  0 (… "  0 (… Gene…      2
 6 AEDEC… Applic… Mild          2 CNTP… "  0 (… "  0 (… "  1 (… "  0 (… Gene…      1
 7 AEDEC… Applic… Mild          2 CNTP… "  0 (… "  0 (… "  1 (… "  1 (… Gene…      1
 8 AEDEC… Applic… Severe        2 CNTP… "  0 (… "  0 (… "  0 (… "  0 (… Gene…      3
 9 AEDEC… Applic… Moderate      2 CNTP… "  0 (… "  0 (… "  0 (… "  0 (… Gene…      2
10 AEDEC… Back P… Severe        2 CNTP… "  0 (… "  0 (… "  0 (… "  0 (… Musc…      3
# ℹ 209 more rows
# ℹ Use `print(n = ...)` to see more rows
…
datastep: columns increased from 8 to 9

# A tibble: 3 × 9
  VAR   SEVERITY VARORD `ARM A`       `ARM B`       `ARM C`    `ARM D` AESOC AEDECOD
  <chr> <chr>     <dbl> <chr>         <chr>         <chr>      <chr>   <chr> <chr>  
1 AESEV Mild          0 " 27 ( 73.0)" " 24 ( 75.0)" " 29 ( 80… " 31 (… All … "All P…
2 AESEV Moderate      0 " 10 ( 27.0)" "  6 ( 18.8)" "  7 ( 19… "  9 (… All … "All P…
3 AESEV Severe        0 "  0 (  0.0)" "  2 (  6.2)" "  0 (  0… "  0 (… All … "All P…

Stack SOC and PT counts

datastep: columns increased from 9 to 10

# A tibble: 282 × 10
   VAR   AESOC        AEDECOD SEVERITY AESEVN VARORD `ARM A` `ARM B` `ARM C` `ARM D`
   <chr> <chr>        <chr>   <chr>     <dbl>  <dbl> <chr>   <chr>   <chr>   <chr>  
 1 AESOC Blood and l… All Pr… Mild          1      1 "  0 (… "  0 (… "  0 (… "  0 (…
 2 AESOC Cardiac dis… All Pr… Mild          1      1 "  0 (… "  0 (… "  0 (… "  2 (…
 3 AESOC Congenital,… All Pr… Mild          1      1 "  0 (… "  1 (… "  0 (… "  0 (…
 4 AESOC Ear and lab… All Pr… Mild          1      1 "  0 (… "  0 (… "  0 (… "  0 (…
 5 AESOC Endocrine d… All Pr… Mild          1      1 "  0 (… "  0 (… "  1 (… "  0 (…
 6 AESOC Gastrointes… All Pr… Mild          1      1 "  0 (… "  4 (… "  0 (… "  2 (…
 7 AESOC General dis… All Pr… Mild          1      1 "  2 (… "  0 (… "  3 (… "  2 (…
 8 AESOC Infections … All Pr… Mild          1      1 "  7 (… "  7 (… "  6 (… "  6 (…
 9 AESOC Injury, poi… All Pr… Mild          1      1 "  0 (… "  0 (… "  0 (… "  1 (…
10 AESOC Investigati… All Pr… Mild          1      1 "  4 (… "  1 (… "  2 (… "  5 (…
# ℹ 272 more rows
# ℹ Use `print(n = ...)` to see more rows

Select desired columns

datastep: columns decreased from 10 to 4

# A tibble: 94 × 4
   AESOC                                                AEDECOD        AESEVN VARORD
   <chr>                                                <chr>           <dbl>  <dbl>
 1 Blood and lymphatic system disorders                 All Preferred…      1      1
 2 Cardiac disorders                                    All Preferred…      1      1
 3 Congenital, familial and genetic disorders           All Preferred…      1      1
 4 Ear and labyrinth disorders                          All Preferred…      1      1
 5 Endocrine disorders                                  All Preferred…      1      1
 6 Gastrointestinal disorders                           All Preferred…      1      1
 7 General disorders and administration site conditions All Preferred…      1      1
 8 Infections and infestations                          All Preferred…      1      1
 9 Injury, poisoning and procedural complications       All Preferred…      1      1
10 Investigations                                       All Preferred…      1      1
# ℹ 84 more rows
# ℹ Use `print(n = ...)` to see more rows

Output extra rows

datastep: columns started with 4 and ended with 4

# A tibble: 188 × 4
   AESOC                                      AEDECOD             AESEVN VARORD
   <chr>                                      <chr>                <dbl>  <dbl>
 1 Blood and lymphatic system disorders       All Preferred Terms      0      1
 2 Blood and lymphatic system disorders       All Preferred Terms     -1      1
 3 Cardiac disorders                          All Preferred Terms      0      1
 4 Cardiac disorders                          All Preferred Terms     -1      1
 5 Congenital, familial and genetic disorders All Preferred Terms      0      1
 6 Congenital, familial and genetic disorders All Preferred Terms     -1      1
 7 Ear and labyrinth disorders                All Preferred Terms      0      1
 8 Ear and labyrinth disorders                All Preferred Terms     -1      1
 9 Endocrine disorders                        All Preferred Terms      0      1
10 Endocrine disorders                        All Preferred Terms     -1      1
# ℹ 178 more rows
# ℹ Use `print(n = ...)` to see more rows

Set additonal rows

datastep: columns started with 10 and ended with 10

# A tibble: 470 × 10
   VAR   AESOC        AEDECOD SEVERITY AESEVN VARORD `ARM A` `ARM B` `ARM C` `ARM D`
   <chr> <chr>        <chr>   <chr>     <dbl>  <dbl> <chr>   <chr>   <chr>   <chr>  
 1 AESOC Blood and l… All Pr… Mild          1      1 "  0 (… "  0 (… "  0 (… "  0 (…
 2 AESOC Cardiac dis… All Pr… Mild          1      1 "  0 (… "  0 (… "  0 (… "  2 (…
 3 AESOC Congenital,… All Pr… Mild          1      1 "  0 (… "  1 (… "  0 (… "  0 (…
 4 AESOC Ear and lab… All Pr… Mild          1      1 "  0 (… "  0 (… "  0 (… "  0 (…
 5 AESOC Endocrine d… All Pr… Mild          1      1 "  0 (… "  0 (… "  1 (… "  0 (…
 6 AESOC Gastrointes… All Pr… Mild          1      1 "  0 (… "  4 (… "  0 (… "  2 (…
 7 AESOC General dis… All Pr… Mild          1      1 "  2 (… "  0 (… "  3 (… "  2 (…
 8 AESOC Infections … All Pr… Mild          1      1 "  7 (… "  7 (… "  6 (… "  6 (…
 9 AESOC Injury, poi… All Pr… Mild          1      1 "  0 (… "  0 (… "  0 (… "  1 (…
10 AESOC Investigati… All Pr… Mild          1      1 "  4 (… "  1 (… "  2 (… "  5 (…
# ℹ 460 more rows
# ℹ Use `print(n = ...)` to see more rows

Sort combined rows

proc_sort: input data set 470 rows and 10 columns
           by: AESOC VARORD AEDECOD AESEVN
           keep: VAR AESOC AEDECOD SEVERITY AESEVN VARORD ARM A ARM B ARM C ARM D
           order: a a a a
           output data set 470 rows and 10 columns

# A tibble: 470 × 10
   VAR   AESOC        AEDECOD SEVERITY AESEVN VARORD `ARM A` `ARM B` `ARM C` `ARM D`
   <chr> <chr>        <chr>   <chr>     <dbl>  <dbl> <chr>   <chr>   <chr>   <chr>  
 1 <NA>  All Adverse… "All P… <NA>         -1      0  <NA>    <NA>    <NA>    <NA>  
 2 <NA>  All Adverse… "All P… <NA>          0      0  <NA>    <NA>    <NA>    <NA>  
 3 AESEV All Adverse… "All P… Mild          1      0 " 27 (… " 24 (… " 29 (… " 31 (…
 4 AESEV All Adverse… "All P… Moderate      2      0 " 10 (… "  6 (… "  7 (… "  9 (…
 5 AESEV All Adverse… "All P… Severe        3      0 "  0 (… "  2 (… "  0 (… "  0 (…
 6 <NA>  Blood and l… "All P… <NA>         -1      1  <NA>    <NA>    <NA>    <NA>  
 7 <NA>  Blood and l… "All P… <NA>          0      1  <NA>    <NA>    <NA>    <NA>  
 8 AESOC Blood and l… "All P… Mild          1      1 "  0 (… "  0 (… "  0 (… "  0 (…
 9 AESOC Blood and l… "All P… Moderate      2      1 "  0 (… "  0 (… "  1 (… "  0 (…
10 AESOC Blood and l… "All P… Severe        3      1 "  0 (… "  0 (… "  0 (… "  0 (…
# ℹ 460 more rows
# ℹ Use `print(n = ...)` to see more rows
…
